<?xml version="1.0" encoding="UTF-8"?>
<svg viewBox="0 0 275.58969 1662.5145" xmlns="http://www.w3.org/2000/svg" xmlns:xlink="http://www.w3.org/1999/xlink">
 <defs>
  <linearGradient id="b">
   <stop offset="0"/>
   <stop offset="1"/>
  </linearGradient>
  <linearGradient id="ab" x1="673.92" x2="687.89" gradientTransform="matrix(0 1 -1 0 1305.8 -152.11)" gradientUnits="userSpaceOnUse">
   <stop offset="0"/>
   <stop offset=".2003"/>
   <stop offset=".3256"/>
   <stop offset=".4304"/>
   <stop offset=".5237"/>
   <stop offset=".6096"/>
   <stop offset=".6888"/>
   <stop offset=".7135"/>
   <stop offset=".7487"/>
   <stop offset=".8263"/>
   <stop offset=".8968"/>
   <stop offset=".957"/>
   <stop offset="1"/>
  </linearGradient>
  <linearGradient id="x" x1="420.86" x2="601.24" gradientUnits="userSpaceOnUse">
   <stop offset=".2697"/>
   <stop offset=".3756"/>
   <stop offset=".4138"/>
   <stop offset=".441"/>
   <stop offset=".463"/>
   <stop offset=".4817"/>
   <stop offset=".4981"/>
   <stop offset=".5"/>
   <stop offset=".5163"/>
   <stop offset=".5784"/>
   <stop offset=".6447"/>
   <stop offset=".7161"/>
   <stop offset=".7965"/>
   <stop offset=".9045"/>
  </linearGradient>
  <linearGradient id="v" x1="428.27" x2="593.83" gradientUnits="userSpaceOnUse">
   <stop offset="0"/>
   <stop offset=".1106"/>
   <stop offset=".2149"/>
   <stop offset=".3167"/>
   <stop offset=".4164"/>
   <stop offset=".5"/>
   <stop offset=".5688"/>
   <stop offset=".68"/>
   <stop offset=".7901"/>
   <stop offset=".8978"/>
   <stop offset="1"/>
  </linearGradient>
  <linearGradient id="u" x1="428.15" x2="593.95" gradientUnits="userSpaceOnUse">
   <stop offset="0"/>
   <stop offset=".2187"/>
   <stop offset=".2975"/>
   <stop offset=".3537"/>
   <stop offset=".3991"/>
   <stop offset=".438"/>
   <stop offset=".4718"/>
   <stop offset=".5"/>
   <stop offset=".5162"/>
   <stop offset=".5701"/>
   <stop offset=".6288"/>
   <stop offset=".693"/>
   <stop offset=".7656"/>
   <stop offset=".8536"/>
   <stop offset="1"/>
  </linearGradient>
  <linearGradient id="t" x2="0" y1="609.55" y2="448.03" gradientUnits="userSpaceOnUse">
   <stop offset="0"/>
   <stop offset=".2032"/>
   <stop offset=".2763"/>
   <stop offset=".3285"/>
   <stop offset=".3707"/>
   <stop offset=".4068"/>
   <stop offset=".4388"/>
   <stop offset=".4678"/>
   <stop offset=".4935"/>
   <stop offset=".5"/>
   <stop offset=".5246"/>
   <stop offset=".5695"/>
   <stop offset=".6181"/>
   <stop offset=".6702"/>
   <stop offset=".7272"/>
   <stop offset=".7918"/>
   <stop offset=".87"/>
   <stop offset="1"/>
  </linearGradient>
  <linearGradient id="s" x2="0" y1="609.67" y2="447.91" gradientUnits="userSpaceOnUse">
   <stop offset="0"/>
   <stop offset=".2032"/>
   <stop offset=".2763"/>
   <stop offset=".3285"/>
   <stop offset=".3707"/>
   <stop offset=".4068"/>
   <stop offset=".4388"/>
   <stop offset=".4678"/>
   <stop offset=".4935"/>
   <stop offset=".5"/>
   <stop offset=".5246"/>
   <stop offset=".5695"/>
   <stop offset=".6181"/>
   <stop offset=".6702"/>
   <stop offset=".7272"/>
   <stop offset=".7918"/>
   <stop offset=".87"/>
   <stop offset="1"/>
  </linearGradient>
  <linearGradient id="r" x2="0" y1="597.95" y2="459.63" gradientUnits="userSpaceOnUse">
   <stop offset="0"/>
   <stop offset=".4222"/>
   <stop offset=".7312"/>
   <stop offset=".8427"/>
  </linearGradient>
  <linearGradient id="q" x1="510.62" x2="511.66" gradientUnits="userSpaceOnUse">
   <stop offset="0"/>
   <stop offset=".2489"/>
   <stop offset=".4341"/>
   <stop offset=".5986"/>
   <stop offset=".751"/>
   <stop offset=".8939"/>
   <stop offset="1"/>
  </linearGradient>
  <linearGradient id="p" x2="0" y1="454.3" y2="601.43" gradientUnits="userSpaceOnUse">
   <stop offset="0"/>
   <stop offset=".026"/>
   <stop offset=".0723"/>
   <stop offset=".1213"/>
   <stop offset=".1722"/>
   <stop offset=".2257"/>
   <stop offset=".2824"/>
   <stop offset=".3441"/>
   <stop offset=".4142"/>
   <stop offset=".5112"/>
   <stop offset=".5865"/>
   <stop offset=".6517"/>
   <stop offset=".7132"/>
   <stop offset=".7725"/>
   <stop offset=".8301"/>
   <stop offset=".8866"/>
   <stop offset=".9421"/>
   <stop offset=".9954"/>
   <stop offset="1"/>
  </linearGradient>
  <linearGradient id="o" x2="0" y1="454.3" y2="601.43" gradientUnits="userSpaceOnUse">
   <stop offset="0"/>
   <stop offset=".026"/>
   <stop offset=".0723"/>
   <stop offset=".1213"/>
   <stop offset=".1722"/>
   <stop offset=".2257"/>
   <stop offset=".2824"/>
   <stop offset=".3441"/>
   <stop offset=".4142"/>
   <stop offset=".5112"/>
   <stop offset=".5865"/>
   <stop offset=".6517"/>
   <stop offset=".7132"/>
   <stop offset=".7725"/>
   <stop offset=".8301"/>
   <stop offset=".8866"/>
   <stop offset=".9421"/>
   <stop offset=".9954"/>
   <stop offset="1"/>
  </linearGradient>
  <linearGradient id="n" x2="0" y1="454.3" y2="601.43" gradientUnits="userSpaceOnUse">
   <stop offset="0"/>
   <stop offset=".026"/>
   <stop offset=".0723"/>
   <stop offset=".1213"/>
   <stop offset=".1722"/>
   <stop offset=".2257"/>
   <stop offset=".2824"/>
   <stop offset=".3441"/>
   <stop offset=".4142"/>
   <stop offset=".5112"/>
   <stop offset=".5865"/>
   <stop offset=".6517"/>
   <stop offset=".7132"/>
   <stop offset=".7725"/>
   <stop offset=".8301"/>
   <stop offset=".8866"/>
   <stop offset=".9421"/>
   <stop offset=".9954"/>
   <stop offset="1"/>
  </linearGradient>
  <linearGradient id="m" x2="0" y1="454.3" y2="601.43" gradientUnits="userSpaceOnUse">
   <stop offset="0"/>
   <stop offset=".026"/>
   <stop offset=".0723"/>
   <stop offset=".1213"/>
   <stop offset=".1722"/>
   <stop offset=".2257"/>
   <stop offset=".2824"/>
   <stop offset=".3441"/>
   <stop offset=".4142"/>
   <stop offset=".5112"/>
   <stop offset=".5865"/>
   <stop offset=".6517"/>
   <stop offset=".7132"/>
   <stop offset=".7725"/>
   <stop offset=".8301"/>
   <stop offset=".8866"/>
   <stop offset=".9421"/>
   <stop offset=".9954"/>
   <stop offset="1"/>
  </linearGradient>
  <linearGradient id="l" x2="0" y1="454.3" y2="601.43" gradientUnits="userSpaceOnUse">
   <stop offset="0"/>
   <stop offset=".026"/>
   <stop offset=".0723"/>
   <stop offset=".1213"/>
   <stop offset=".1722"/>
   <stop offset=".2257"/>
   <stop offset=".2824"/>
   <stop offset=".3441"/>
   <stop offset=".4142"/>
   <stop offset=".5112"/>
   <stop offset=".5865"/>
   <stop offset=".6517"/>
   <stop offset=".7132"/>
   <stop offset=".7725"/>
   <stop offset=".8301"/>
   <stop offset=".8866"/>
   <stop offset=".9421"/>
   <stop offset=".9954"/>
   <stop offset="1"/>
  </linearGradient>
  <linearGradient id="k" x2="0" y1="455.69" y2="602.83" gradientUnits="userSpaceOnUse">
   <stop offset="0"/>
   <stop offset=".026"/>
   <stop offset=".0723"/>
   <stop offset=".1213"/>
   <stop offset=".1722"/>
   <stop offset=".2257"/>
   <stop offset=".2824"/>
   <stop offset=".3441"/>
   <stop offset=".4142"/>
   <stop offset=".5112"/>
   <stop offset=".5865"/>
   <stop offset=".6517"/>
   <stop offset=".7132"/>
   <stop offset=".7725"/>
   <stop offset=".8301"/>
   <stop offset=".8866"/>
   <stop offset=".9421"/>
   <stop offset=".9954"/>
   <stop offset="1"/>
  </linearGradient>
  <linearGradient id="j" x2="0" y1="487.46" y2="481.45" gradientUnits="userSpaceOnUse">
   <stop offset="0"/>
   <stop offset=".0379"/>
   <stop offset=".098"/>
   <stop offset=".1671"/>
   <stop offset=".2478"/>
   <stop offset=".3476"/>
   <stop offset=".4876"/>
   <stop offset=".8764"/>
  </linearGradient>
  <linearGradient id="i" x1="499.27" x2="522.71" y1="549.34" y2="573.71" gradientUnits="userSpaceOnUse">
   <stop offset="0"/>
   <stop offset="1"/>
  </linearGradient>
  <linearGradient id="h" x1="510.66" x2="511.34" gradientTransform="matrix(.1045 -.9945 .9945 .1045 -101.31 1011)" gradientUnits="userSpaceOnUse">
   <stop offset="0"/>
   <stop offset=".2489"/>
   <stop offset=".4341"/>
   <stop offset=".5986"/>
   <stop offset=".751"/>
   <stop offset=".8939"/>
   <stop offset="1"/>
  </linearGradient>
  <linearGradient id="an" x2="0" y1="130.9" gradientUnits="userSpaceOnUse">
   <stop offset="0"/>
   <stop offset=".1094"/>
   <stop offset=".2879"/>
   <stop offset=".5118"/>
   <stop offset=".5955"/>
   <stop offset=".6157"/>
   <stop offset=".645"/>
   <stop offset=".6796"/>
   <stop offset=".7224"/>
   <stop offset=".7826"/>
   <stop offset=".9494"/>
   <stop offset=".9953"/>
   <stop offset="1"/>
  </linearGradient>
  <linearGradient id="a" x1="515.15" x2="506.95" gradientUnits="userSpaceOnUse">
   <stop offset="0"/>
   <stop offset=".0985"/>
   <stop offset=".4593"/>
   <stop offset=".7723"/>
   <stop offset="1"/>
  </linearGradient>
  <linearGradient id="am" x1="513.91" x2="521.06" gradientTransform="matrix(.9998 -.0179 .0179 .9998 -20.831 9.725)" gradientUnits="userSpaceOnUse">
   <stop offset="0"/>
   <stop offset=".2234"/>
   <stop offset=".4602"/>
   <stop offset=".6768"/>
   <stop offset=".8639"/>
   <stop offset="1"/>
  </linearGradient>
  <linearGradient id="al" x1="513.31" x2="520.47" gradientTransform="matrix(.9998 -.0179 .0179 .9998 -20.831 9.725)" gradientUnits="userSpaceOnUse">
   <stop offset="0"/>
   <stop offset=".2234"/>
   <stop offset=".4602"/>
   <stop offset=".6768"/>
   <stop offset=".8639"/>
   <stop offset="1"/>
  </linearGradient>
  <linearGradient id="ak" x1="512.72" x2="519.87" gradientTransform="matrix(.9998 -.0179 .0179 .9998 -20.831 9.725)" gradientUnits="userSpaceOnUse">
   <stop offset="0"/>
   <stop offset=".2234"/>
   <stop offset=".4602"/>
   <stop offset=".6768"/>
   <stop offset=".8639"/>
   <stop offset="1"/>
  </linearGradient>
  <linearGradient id="aj" x1="512.12" x2="519.28" gradientTransform="matrix(.9998 -.0179 .0179 .9998 -20.831 9.725)" gradientUnits="userSpaceOnUse">
   <stop offset="0"/>
   <stop offset=".2234"/>
   <stop offset=".4602"/>
   <stop offset=".6768"/>
   <stop offset=".8639"/>
   <stop offset="1"/>
  </linearGradient>
  <linearGradient id="ai" x1="511.53" x2="518.69" gradientTransform="matrix(.9998 -.0179 .0179 .9998 -20.831 9.725)" gradientUnits="userSpaceOnUse">
   <stop offset="0"/>
   <stop offset=".2234"/>
   <stop offset=".4602"/>
   <stop offset=".6768"/>
   <stop offset=".8639"/>
   <stop offset="1"/>
  </linearGradient>
  <linearGradient id="ah" x1="510.94" x2="518.09" gradientTransform="matrix(.9998 -.0179 .0179 .9998 -20.831 9.725)" gradientUnits="userSpaceOnUse">
   <stop offset="0"/>
   <stop offset=".2234"/>
   <stop offset=".4602"/>
   <stop offset=".6768"/>
   <stop offset=".8639"/>
   <stop offset="1"/>
  </linearGradient>
  <linearGradient id="ag" x1="510.34" x2="517.5" gradientTransform="matrix(.9998 -.0179 .0179 .9998 -20.831 9.725)" gradientUnits="userSpaceOnUse">
   <stop offset="0"/>
   <stop offset=".2234"/>
   <stop offset=".4602"/>
   <stop offset=".6768"/>
   <stop offset=".8639"/>
   <stop offset="1"/>
  </linearGradient>
  <linearGradient id="af" x1="509.75" x2="516.9" gradientTransform="matrix(.9998 -.0179 .0179 .9998 -20.831 9.725)" gradientUnits="userSpaceOnUse">
   <stop offset="0"/>
   <stop offset=".2234"/>
   <stop offset=".4602"/>
   <stop offset=".6768"/>
   <stop offset=".8639"/>
   <stop offset="1"/>
  </linearGradient>
  <linearGradient id="ae" x1="505.58" x2="516.52" gradientUnits="userSpaceOnUse">
   <stop offset="0"/>
   <stop offset=".0496"/>
   <stop offset=".4132"/>
   <stop offset=".741"/>
   <stop offset="1"/>
  </linearGradient>
  <linearGradient id="ad" x1="506.13" x2="515.97" gradientUnits="userSpaceOnUse">
   <stop offset="0"/>
   <stop offset=".3192"/>
   <stop offset=".434"/>
   <stop offset=".5157"/>
   <stop offset=".5393"/>
   <stop offset=".5406"/>
   <stop offset=".5736"/>
   <stop offset=".611"/>
   <stop offset=".6553"/>
   <stop offset=".71"/>
   <stop offset=".7868"/>
   <stop offset="1"/>
  </linearGradient>
  <linearGradient id="ac" x2="0" y1="70.438" y2="12.88" gradientUnits="userSpaceOnUse">
   <stop offset="0"/>
   <stop offset=".0787"/>
   <stop offset=".1461"/>
   <stop offset=".3034"/>
   <stop offset=".4663"/>
   <stop offset=".6264"/>
   <stop offset=".7179"/>
   <stop offset=".7912"/>
   <stop offset="1"/>
  </linearGradient>
  <radialGradient id="g" cx="-426.68" cy="509.45" r="91.109" gradientTransform="matrix(-.023013 -1.6339 1.71 -.024084 -1307.7 -176.07)" gradientUnits="userSpaceOnUse">
   <stop offset="0"/>
   <stop offset=".82378"/>
   <stop offset=".90847"/>
   <stop offset="1"/>
  </radialGradient>
  <radialGradient id="aa" cx="679.6" cy="698.04" r="8.6146" gradientTransform="matrix(0 1 -1 0 1305.8 -152.11)" gradientUnits="userSpaceOnUse">
   <stop offset=".118"/>
   <stop offset=".2099"/>
   <stop offset=".3202"/>
   <stop offset=".4398"/>
   <stop offset=".5661"/>
   <stop offset=".6977"/>
   <stop offset=".8315"/>
  </radialGradient>
  <radialGradient id="z" cx="579.33" cy="583.94" r="228.58" gradientUnits="userSpaceOnUse">
   <stop offset=".3315"/>
   <stop offset=".3344"/>
   <stop offset=".3446"/>
   <stop offset=".359"/>
   <stop offset=".3989"/>
  </radialGradient>
  <radialGradient id="y" cx="511.05" cy="528.79" r="90.195" gradientUnits="userSpaceOnUse">
   <stop offset=".8989"/>
   <stop offset=".9677"/>
   <stop offset=".9924"/>
   <stop offset="1"/>
  </radialGradient>
  <radialGradient id="w" cx="578.98" cy="583.66" r="227.42" gradientUnits="userSpaceOnUse">
   <stop offset=".3315"/>
   <stop offset=".332"/>
   <stop offset=".3368"/>
   <stop offset=".3423"/>
   <stop offset=".3487"/>
   <stop offset=".3567"/>
   <stop offset=".3679"/>
   <stop offset=".3989"/>
  </radialGradient>
  <radialGradient id="f" cx="-574.04" cy="655.48" r="25.684" gradientTransform="matrix(.85725 -.83992 .99955 .83584 -668.91 -613.46)" gradientUnits="userSpaceOnUse" xlink:href="#b"/>
  <radialGradient id="e" cx="-574.04" cy="655.48" r="25.684" gradientTransform="matrix(.85725 -.83992 .99955 .83584 -499.08 -617.65)" gradientUnits="userSpaceOnUse" xlink:href="#b"/>
  <radialGradient id="d" cx="-574.04" cy="655.48" r="25.684" gradientTransform="matrix(.85725 -.83992 .99955 .83584 -672.06 -425.81)" gradientUnits="userSpaceOnUse" xlink:href="#b"/>
  <radialGradient id="c" cx="-574.04" cy="655.48" r="25.684" gradientTransform="matrix(.85725 -.83992 .99955 .83584 -500.13 -427.9)" gradientUnits="userSpaceOnUse" xlink:href="#b"/>
 </defs>
 <g transform="matrix(.94822 0 0 1.0471 532.32 242.57)">
  <path d="m-498.3 354.9c-5.5048 19.859-11.208 39.626-14.611 60.002h182.22c-3.1935-20.392-7.4081-40.568-12.656-60.375l-154.95 0.37297zm-14.579 250.91c3.3565 20.088 10.256 39.843 15.815 59.971l152.48-0.37297c5.2235-19.92 10.655-39.323 13.829-59.598h-182.12z" fill="url(#g)"/>
  <path d="m-505.81 383c-0.28204 0-0.56329 0.02492-0.84375 0.03125-2.3688 10.559-4.4638 21.179-6.25 31.875h42.156c-0.90844-17.746-16.26-31.906-35.062-31.906z" fill="url(#f)"/>
  <path d="m-371.94 605.81c1.9344 16.775 16.833 29.844 34.906 29.844 0.28688 0 0.55851 0.00654 0.84375 0 2.0584-9.907 3.8751-19.863 5.4375-29.844h-41.188z" fill="url(#c)"/>
  <path d="m-512.88 605.81c1.7742 10.618 3.8682 21.241 6.25 31.875 17.744-1.1168 31.88-14.842 32.719-31.875h-38.969z" fill="url(#d)"/>
  <path d="m-337.81 378.88c-18.548 0.89905-33.312 15.561-33.312 33.5 0 0.85737 0.05874 1.69 0.125 2.5312h40.312c-1.895-12.1-4.1646-24.115-6.7812-36.031-0.11362 0.00446-0.23041-0.00549-0.34375 0z" fill="url(#e)"/>
 </g>
 <g transform="matrix(1.4662 0 0 1.4662 -616.26 0)">
  <path d="m600.249,535.774h5.327c1.149,0 2.306-1.006 2.428-2.038s.242-2.322.242-5.129-.061-3.507-.242-4.762-1.278-2.038-2.428-2.038h-5.327v13.967z" fill="url(#ab)"/>
  <path d="m600.249,522.886v.619h6.772c.019.167.034.33.049.494h-6.821v.742h6.877c.01.175.019.358.025.558h-6.902v.681h6.924c.003.191.007.396.011.618h-6.935v.371h6.938c.001.081.001.164.002.249h-6.939v.371h6.941c.001.176.002.361.002.556h-6.943v.247h6.943v.101 .395h-6.943v.247h6.941c0,.138-.001.271-.002.402h-6.939v.371h6.936c-.001.062-.001.126-.003.187h-6.933v.371h6.927c-.003.184-.007.359-.011.527h-6.916v.247h6.909c-.002.042-.003.083-.004.124h-6.905v.247h6.897c-.011.291-.021.558-.034.805h-6.863v.772h6.817c-.018.257-.036.491-.055.71h-6.763v.619h6.697c-.067.386-.231.759-.458,1.085 .791-.347 1.434-1.086 1.523-1.841 .122-1.036.244-2.332.244-5.15s-.062-3.522-.244-4.783c-.123-.841-.657-1.47-1.344-1.797 .127.254.222.541.275.855h-6.693z" fill="url(#aa)"/>
 </g>
 <g transform="matrix(1.4662 0 0 1.4662 -616.26 0)">
  <path d="m601.71 528.79a90.657 90.657 0 1 0 -181.31 0 90.657 90.657 0 1 0 181.31 0" fill="url(#z)"/>
  <path d="m601.61 528.79c0 12.227-2.394 24.087-7.116 35.252-4.562 10.784-11.092 20.47-19.409 28.787s-18.003 14.848-28.787 19.409c-11.165 4.723-23.025 7.117-35.252 7.117s-24.086-2.395-35.251-7.117c-10.785-4.562-20.47-11.092-28.787-19.409s-14.848-18.003-19.409-28.787c-4.722-11.165-7.117-23.025-7.117-35.252s2.395-24.086 7.117-35.252c4.562-10.784 11.091-20.47 19.409-28.787s18.002-14.848 28.787-19.408c11.165-4.723 23.025-7.117 35.251-7.117s24.087 2.395 35.252 7.117c10.784 4.561 20.47 11.091 28.787 19.408s14.848 18.003 19.409 28.787c4.723 11.166 7.116 23.026 7.116 35.252zm-90.564-90.75c-12.251 0-24.136 2.399-35.324 7.132-10.807 4.57-20.512 11.114-28.846 19.448s-14.878 18.04-19.449 28.846c-4.732 11.188-7.132 23.073-7.132 35.324s2.399 24.136 7.132 35.324c4.571 10.807 11.114 20.512 19.449 28.846s18.039 14.878 28.846 19.449c11.188 4.731 23.073 7.131 35.324 7.131s24.137-2.399 35.324-7.131c10.807-4.571 20.512-11.115 28.846-19.449 8.335-8.334 14.878-18.039 19.448-28.846 4.732-11.188 7.132-23.072 7.132-35.324s-2.399-24.136-7.132-35.324c-4.57-10.806-11.113-20.512-19.448-28.846s-18.039-14.878-28.846-19.448c-11.187-4.733-23.072-7.132-35.324-7.132z" fill="#e6e6e6"/>
  <path d="m601.27 528.79c0 12.18-2.385 23.994-7.089 35.117-4.544 10.743-11.049 20.391-19.335 28.677s-17.933 14.79-28.676 19.334c-11.122 4.704-22.938 7.09-35.117 7.09s-23.994-2.386-35.117-7.09c-10.743-4.544-20.391-11.049-28.676-19.334-8.286-8.286-14.791-17.935-19.335-28.677-4.704-11.123-7.089-22.938-7.089-35.117s2.385-23.994 7.089-35.116c4.544-10.743 11.049-20.392 19.335-28.677s17.934-14.791 28.676-19.335c11.123-4.704 22.938-7.09 35.117-7.09s23.995 2.386 35.117 7.09c10.743 4.544 20.391 11.049 28.676 19.335s14.791 17.934 19.335 28.677c4.704 11.122 7.089 22.937 7.089 35.116zm-90.217-90.402c-12.204 0-24.043 2.39-35.188 7.104-10.765 4.553-20.433 11.071-28.735 19.374s-14.821 17.97-19.374 28.735c-4.714 11.146-7.104 22.984-7.104 35.188 0 12.205 2.39 24.044 7.104 35.189 4.553 10.765 11.071 20.433 19.374 28.735s17.97 14.82 28.735 19.374c11.145 4.714 22.984 7.104 35.188 7.104s24.044-2.39 35.189-7.104c10.765-4.554 20.433-11.072 28.735-19.374s14.82-17.971 19.374-28.735c4.714-11.146 7.104-22.984 7.104-35.189s-2.39-24.043-7.104-35.188c-4.554-10.766-11.072-20.434-19.374-28.735s-17.971-14.821-28.735-19.374c-11.145-4.715-22.984-7.104-35.189-7.104z" fill="#e6e6e6"/>
  <path d="m601.24 528.79a90.194 90.194 0 1 0 -180.39 0 90.194 90.194 0 1 0 180.39 0" fill="url(#y)"/>
  <path d="m601.24 528.79a90.194 90.194 0 1 0 -180.39 0 90.194 90.194 0 1 0 180.39 0" fill="url(#x)"/>
  <path d="m601.24 528.79a90.194 90.194 0 1 0 -180.39 0 90.194 90.194 0 1 0 180.39 0" fill="url(#w)" opacity=".7"/>
  <path d="m452.54 470.15c32.304-32.233 84.807-32.212 117.08 0.063l2.418-2.417c-33.609-33.609-88.282-33.63-121.92-0.064l2.417 2.418z" fill="#b8b8b8"/>
  <path d="m569.56 587.43c-32.303 32.233-84.807 32.212-117.08-0.063l-2.418 2.417c33.609 33.609 88.282 33.63 121.92 0.064l-2.417-2.418z" fill="#b8b8b8"/>
  <path d="m428.27 528.79c0 45.646 37.135 82.781 82.781 82.781s82.781-37.135 82.781-82.781-37.135-82.781-82.781-82.781-82.781 37.136-82.781 82.781zm1.947 0c0-44.572 36.262-80.834 80.834-80.834s80.835 36.262 80.835 80.834-36.263 80.834-80.835 80.834-80.834-36.262-80.834-80.834z" fill="url(#v)"/>
  <path d="m428.15 528.79c0 45.713 37.189 82.902 82.902 82.902s82.902-37.189 82.902-82.902-37.189-82.901-82.902-82.901-82.902 37.189-82.902 82.901zm0.389 0c0-45.497 37.016-82.513 82.513-82.513s82.513 37.016 82.513 82.513-37.015 82.513-82.513 82.513-82.513-37.015-82.513-82.513z" fill="url(#u)"/>
  <path d="m430.29 528.79c0 44.532 36.229 80.762 80.761 80.762s80.762-36.229 80.762-80.762-36.229-80.761-80.762-80.761-80.761 36.229-80.761 80.761zm1.899 0c0-43.484 35.377-78.861 78.862-78.861s78.862 35.377 78.862 78.861-35.378 78.862-78.862 78.862-78.862-35.378-78.862-78.862z" fill="url(#t)"/>
  <path d="m589.84 528.79c0 21.045-8.195 40.83-23.076 55.711s-34.666 23.076-55.711 23.076-40.83-8.195-55.71-23.076-23.077-34.666-23.077-55.711c0-21.044 8.196-40.829 23.077-55.711s34.666-23.076 55.71-23.076c21.045 0 40.83 8.195 55.711 23.076s23.076 34.667 23.076 55.711zm-78.787-79.25c-21.168 0-41.069 8.244-56.038 23.212s-23.212 34.87-23.212 56.038 8.244 41.07 23.212 56.038 34.869 23.212 56.038 23.212 41.07-8.244 56.038-23.212 23.212-34.869 23.212-56.038-8.243-41.069-23.212-56.038-34.869-23.212-56.038-23.212z" fill="#949494"/>
  <path d="m430.17 528.79c0 44.597 36.282 80.879 80.879 80.879s80.879-36.282 80.879-80.879-36.281-80.879-80.879-80.879-80.879 36.282-80.879 80.879zm0.38 0c0-44.388 36.112-80.499 80.499-80.499s80.499 36.111 80.499 80.499-36.111 80.499-80.499 80.499-80.499-36.111-80.499-80.499z" fill="url(#s)"/>
 </g>
 <g transform="matrix(1.4662 0 0 1.4662 -616.26 0)">
  <path d="m589.1 528.79a77.961 77.961 0 1 0 -155.92 0 77.961 77.961 0 1 0 155.92 0"/>
  <path d="m580.3 528.79a69.159 69.159 0 1 0 -138.32 0 69.159 69.159 0 1 0 138.32 0" fill="url(#r)"/>
  <path d="m580.01 528.79c0 18.395-7.164 35.688-20.171 48.696s-30.301 20.17-48.696 20.17-35.688-7.163-48.696-20.17-20.17-30.302-20.17-48.696 7.164-35.688 20.17-48.696 30.301-20.17 48.696-20.17c18.396 0 35.688 7.163 48.696 20.17s20.171 30.302 20.171 48.696zm-68.867-69.329c-18.519 0-35.928 7.211-49.023 20.306-13.094 13.095-20.306 30.505-20.306 49.023s7.211 35.929 20.306 49.023c13.095 13.095 30.504 20.306 49.023 20.306s35.929-7.211 49.023-20.306 20.306-30.505 20.306-49.023-7.211-35.929-20.306-49.023-30.505-20.306-49.023-20.306z" fill="#acadaf"/>
 </g>
 <g transform="matrix(1.4662 0 0 1.4662 -616.26 0)" fill="#fff">
  <path d="m509.947,453.47 .444.333-.958,1.304 .133-.016c.036-.003.064-.005.085-.005 .326,0 .607.125.844.374s.354.542.354.888c0,.367-.132.683-.395.945s-.576.393-.943.393c-.364,0-.683-.129-.957-.387s-.403-.564-.403-.917c0-.317.131-.653.393-1.008l1.403-1.904zm.312,2.919c0-.214-.074-.394-.221-.541s-.329-.223-.539-.223-.391.073-.538.221-.221.325-.221.534 .074.388.221.535 .328.221.541.221 .385-.073.533-.221 .224-.324.224-.526z"/>
  <path d="m511.365,455.589c0-.639.149-1.148.448-1.529 .267-.345.59-.518.97-.518s.702.173.97.518c.298.381.447.899.447,1.556 0,.654-.149,1.172-.447,1.553-.268.345-.589.518-.967.518s-.702-.173-.972-.518c-.299-.382-.449-.908-.449-1.58zm.597.004c0,.445.077.815.231,1.109s.351.434.589.434 .434-.145.59-.434 .234-.65.234-1.088-.079-.802-.234-1.092-.353-.431-.59-.431c-.235,0-.431.144-.587.431s-.233.643-.233,1.071z"/>
  <path d="m549.452,464.834-1.071-.618-.503.477 .077.036 .065.034c.337.195.547.469.632.821 .086.352.028.704-.176,1.058-.212.365-.508.596-.891.691-.383.095-.761.034-1.134-.182-.46-.266-.699-.69-.715-1.275l.589-.106c.003.249.036.444.104.585s.182.254.341.347c.21.121.429.149.656.085 .229-.069.407-.212.532-.428s.162-.444.103-.666c-.057-.228-.191-.401-.403-.524-.234-.135-.497-.149-.787-.043l-.173-.101 1.601-1.511 1.436.828-.283.492z"/>
  <path d="m574.85,490.185-.348-.601 .658.004 .482.836-3.473,2.004-.302-.522 2.983-1.721z"/>
  <path d="m574.499,492.4c.555-.319 1.07-.445 1.55-.378 .432.06.742.253.932.581s.202.695.038,1.099c-.181.449-.556.838-1.125,1.166s-1.09.456-1.568.389c-.433-.059-.742-.252-.932-.579s-.201-.694-.038-1.101c.18-.449.561-.841 1.143-1.177zm.295.519c-.385.223-.666.475-.844.755-.174.277-.201.521-.082.728 .119.205.343.304.671.294s.681-.123 1.061-.342 .654-.469.827-.748 .196-.521.078-.727c-.117-.203-.34-.301-.667-.293s-.673.119-1.044.333z"/>
  <path d="m585.602,527.312v-.693l.568.332v.965h-4.01v-.604h3.442z"/>
  <path d="m585.602,531.527v-1.235l-.665-.197c.004.029.007.058.008.084s.003.052.003.074c0,.39-.132.709-.395.958s-.596.377-1.004.377c-.423,0-.771-.143-1.044-.427s-.41-.641-.41-1.072c0-.531.249-.95.747-1.257l.387.458c-.214.126-.366.253-.455.381s-.129.285-.129.471c0,.242.085.445.254.61 .176.164.388.246.637.246 .257,0 .466-.081.629-.244 .168-.163.252-.366.252-.61 0-.271-.119-.506-.356-.703v-.2l2.11.631v1.656h-.569v-.001z"/>
  <path d="m574.042,563.107-.746,1.292-.492-.283 1.346-2.332 .764,2.048c.077.202.146.374.206.516s.114.255.162.339c.091.166.193.282.307.348 .16.093.329.114.505.063s.311-.16.407-.328c.203-.351.111-.672-.274-.962l.301-.522c.685.507.837,1.088.459,1.743-.182.316-.437.523-.762.622-.324.101-.636.064-.933-.107-.188-.109-.346-.267-.47-.472-.064-.104-.134-.245-.206-.418s-.155-.386-.246-.638l-.328-.909z"/>
  <path d="m574.222,565.723c.554.319.92.703 1.102,1.152 .165.403.152.77-.037,1.099s-.501.522-.934.581c-.479.067-1.003-.062-1.57-.391s-.941-.715-1.122-1.164c-.165-.403-.153-.769.035-1.096s.501-.522.935-.584c.478-.067 1.009.067 1.591.403zm-.302.514c-.386-.223-.744-.341-1.076-.354s-.552.087-.671.294-.091.448.081.729 .446.527.825.746 .733.334 1.062.343 .55-.09.668-.296c.117-.203.091-.444-.08-.724s-.439-.524-.809-.738z"/>
  <path d="m548.425,590.042-1.293.746-.284-.491 2.332-1.346-.362,2.155c-.034.213-.061.396-.08.55s-.028.277-.028.373c-.005.19.026.342.091.454 .094.162.229.265.406.309s.35.017.517-.08c.352-.202.433-.526.243-.972l.522-.301c.339.781.181,1.361-.475,1.739-.316.183-.64.235-.971.157-.331-.075-.583-.263-.755-.56-.109-.188-.165-.403-.17-.643-.003-.124.007-.279.029-.466s.059-.412.106-.675l.172-.949z"/>
  <path d="m545.751,594.905 1.069-.618-.16-.675c-.024.019-.047.035-.07.049-.022.016-.043.028-.062.04-.339.194-.68.24-1.028.138s-.623-.328-.827-.683c-.212-.365-.263-.737-.153-1.116s.35-.676.724-.892c.461-.266.947-.259 1.462.019l-.202.563c-.217-.123-.403-.189-.558-.202s-.312.03-.472.122c-.211.121-.344.297-.401.526s-.021.458.104.674 .304.363.526.423c.225.063.442.035.654-.087 .235-.136.379-.356.432-.66l.173-.101 .508,2.143-1.435.828-.284-.491z"/>
  <path d="m512.745,601.821v.517c-.256,0-.428.028-.516.086-.158.101-.237.262-.237.483 0,.171.057.311.172.418s.258.163.438.163c.168,0 .298-.04.39-.122s.155-.223.198-.421h.602c-.062.378-.189.654-.384.83-.193.175-.465.263-.812.263s-.638-.104-.86-.312-.332-.472-.332-.797c0-.367.145-.652.436-.857-.334-.194-.501-.513-.501-.952 0-.359.122-.654.365-.883s.554-.343.933-.343c.483,0 .841.178 1.075.532 .098.148.159.354.185.617h-.584c-.032-.193-.107-.342-.227-.445s-.277-.154-.472-.154c-.195,0-.357.065-.485.195s-.192.302-.192.506c0,.271.097.463.289.577 .109.066.284.099.519.099z"/>
  <path d="m510.615,601.991c0,.64-.149,1.149-.448,1.53-.267.345-.59.517-.97.517s-.703-.172-.97-.517c-.298-.381-.447-.9-.447-1.557 0-.654.149-1.172.447-1.553 .267-.345.589-.518.967-.518s.702.173.972.518c.3.382.449.908.449,1.58zm-.596-.004c0-.445-.077-.814-.231-1.109-.154-.289-.351-.434-.59-.434s-.434.145-.59.434-.234.65-.234,1.089 .078.802.234,1.091 .353.431.59.431c.235,0 .432-.144.587-.431 .155-.287.234-.643.234-1.071z"/>
  <path d="m476.019,592.921-.259.448c-.222-.129-.385-.189-.49-.185-.187.009-.335.108-.446.301-.086.147-.106.298-.061.447s.142.271.298.361c.146.084.278.113.398.089 .118-.027.245-.116.381-.266l.521.302c-.243.295-.492.471-.748.525-.255.055-.534-.004-.835-.179s-.5-.408-.588-.699-.052-.574.111-.856c.184-.317.452-.492.806-.523-.191-.337-.177-.695.043-1.076 .18-.312.432-.506.757-.582s.651-.02.979.17c.418.241.64.574.666.998 .01.177-.04.387-.149.627l-.506-.292c.07-.184.079-.35.026-.499s-.163-.272-.331-.37-.342-.122-.519-.074-.317.166-.419.343c-.135.234-.147.449-.039.645 .065.112.199.228.404.345z"/>
  <path d="m471.156,591.939 1.07.617 .503-.477-.077-.036-.066-.034c-.337-.195-.548-.469-.632-.82-.086-.353-.028-.705.176-1.059 .211-.365.508-.596.89-.69 .383-.095.761-.035 1.134.181 .46.266.699.691.715,1.275l-.589.106c-.002-.249-.037-.443-.104-.585s-.182-.254-.342-.347c-.21-.121-.429-.149-.656-.085-.23.069-.407.212-.532.428s-.163.444-.103.667c.057.227.191.401.402.523 .236.136.499.15.788.044l.173.1-1.601,1.511-1.435-.828 .286-.491z"/>
  <path d="m448.649,565.398-.213-.368 .476-.274 .213.368 .492-.284 .302.523-.492.283 .984,1.705-4.527-.356 2.765-1.597zm.302.524-1.163.671 1.625.13-.462-.801z"/>
  <path d="m447.415,565.089c-.554.32-1.07.445-1.549.378-.432-.059-.743-.253-.933-.581s-.202-.695-.037-1.099c.181-.449.556-.838 1.124-1.166s1.09-.457 1.569-.389c.432.059.742.252.931.579s.202.694.039,1.101c-.181.448-.562.842-1.144,1.177zm-.295-.518c.385-.223.667-.475.845-.756 .173-.277.2-.521.081-.728-.118-.205-.342-.303-.67-.294s-.68.122-1.06.342-.655.469-.828.748-.197.521-.078.727c.117.204.34.302.667.293s.673-.118 1.043-.332z"/>
  <path d="m438.703,529.301v-.426h.549v.426h.568v.604h-.568v1.969l-3.742-2.572h3.193v-.001zm0,.603h-1.342l1.342.925v-.925z"/>
  <path d="m436.378,525.843v1.236l.665.197-.008-.084c-.001-.027-.002-.052-.002-.074 0-.39.132-.709.395-.958s.596-.377 1.004-.377c.422,0 .77.143 1.043.426s.41.642.41,1.072c0,.531-.249.95-.747,1.257l-.387-.457c.215-.126.366-.253.455-.382s.13-.284.13-.47c0-.242-.085-.445-.255-.61s-.387-.246-.636-.246c-.256,0-.466.081-.628.244-.168.162-.252.366-.252.609 0,.272.119.507.355.704v.2l-2.109-.631v-1.657h.567v.001z"/>
  <path d="m446.231,491.78-.618,1.071 .477.503 .036-.077c.012-.024.023-.046.035-.065 .195-.337.468-.548.821-.633 .352-.086.704-.027 1.058.177 .366.211.596.508.69.891 .095.382.035.76-.181,1.134-.266.46-.69.698-1.275.715l-.106-.59c.249-.002.444-.036.585-.104s.255-.182.347-.342c.121-.21.149-.429.084-.655-.069-.23-.212-.407-.427-.532s-.444-.162-.667-.103c-.227.057-.401.19-.523.402-.136.235-.15.498-.043.787l-.1.173-1.511-1.601 .828-1.435 .49.284z"/>
  <path d="m447.808,491.871c-.553-.319-.92-.703-1.101-1.152-.166-.403-.153-.77.037-1.099s.5-.522.933-.581c.479-.068 1.003.062 1.571.391s.94.715 1.122,1.164c.165.403.153.769-.036,1.096s-.5.521-.934.584c-.48.067-1.01-.067-1.592-.403zm.301-.515c.386.223.744.341 1.076.354s.552-.087.671-.295c.119-.205.092-.447-.081-.728s-.446-.527-.825-.746-.733-.334-1.062-.343-.55.09-.668.295-.091.445.08.725 .439.525.809.738z"/>
  <path d="m473.401,464.366-1.07.617 .162.675 .069-.049 .062-.039c.337-.195.68-.241 1.027-.138s.624.328.828.682c.211.365.262.738.153,1.116s-.35.676-.724.892c-.46.266-.948.26-1.462-.019l.202-.563c.217.123.403.19.558.203 .154.011.312-.03.472-.123 .21-.121.344-.296.401-.525s.02-.459-.104-.675c-.128-.222-.303-.362-.526-.422-.225-.064-.443-.036-.654.087-.235.136-.379.355-.432.66l-.173.1-.508-2.143 1.435-.828 .284.492z"/>
  <path d="m476.243,462.725-1.07.618 .161.675 .069-.05 .062-.039c.338-.194.68-.24 1.027-.138s.624.328.829.682c.211.366.262.738.152,1.117s-.35.676-.723.891c-.46.266-.948.26-1.462-.018l.202-.563c.216.122.403.189.558.202 .154.011.312-.03.472-.122 .21-.122.344-.297.401-.525s.02-.459-.104-.675c-.128-.223-.304-.363-.526-.423-.225-.063-.443-.035-.654.087-.235.136-.379.356-.432.66l-.173.101-.508-2.143 1.434-.828 .285.491z"/>
 </g>
 <g transform="matrix(1.4662 0 0 1.4662 -616.26 0)">
  <path transform="matrix(.021 -.9998 .9998 .021 38.741 965.84)" d="m511.35 462.91h2.331v0.463h-2.331z" fill="#acadaf"/>
  <path transform="matrix(.0419 -.9991 .9991 .0419 29.584 957.22)" d="m512.73 462.95h2.331v0.463h-2.331z" fill="#acadaf"/>
  <path transform="matrix(.0626 -.998 .998 .0626 20.638 948.5)" d="m514.1 463.03h2.331v0.463h-2.331z" fill="#acadaf"/>
  <path transform="matrix(.0834 -.9965 .9965 .0834 11.802 939.56)" d="m515.47 463.13h2.33v0.463h-2.33z" fill="#acadaf"/>
  <path transform="matrix(.1046 -.9945 .9945 .1046 .495 931.9)" d="m514.42 465.45h6.713v0.463h-6.713z" fill="#acadaf"/>
  <path transform="matrix(.1253,-.9921,.9921,.1253,-5.7028,920.86)" d="m518.21 463.43h2.331v0.463h-2.331z" fill="#acadaf"/>
  <path transform="matrix(.1458 -.9893 .9893 .1458 -14.096 911.38)" d="m519.57 463.62h2.331v0.463h-2.331z" fill="#acadaf"/>
  <path transform="matrix(.1672 -.9859 .9859 .1672 -22.734 901.23)" d="m520.93 463.84h2.331v0.463h-2.331z" fill="#acadaf"/>
  <path transform="matrix(.1873 -.9823 .9823 .1873 -30.708 891.52)" d="m522.28 464.09h2.33v0.463h-2.33z" fill="#acadaf"/>
  <path transform="matrix(.2079 -.9781 .9781 .2079 -41.227 882.56)" d="m520.98 466.5h6.711v0.463h-6.711z" fill="#acadaf"/>
  <path transform="matrix(.2279 -.9737 .9737 .2279 -46.449 871.23)" d="m524.97 464.67h2.331v0.463h-2.331z" fill="#acadaf"/>
  <path transform="matrix(.2488 -.9685 .9685 .2488 -54.386 860.34)" d="m526.3 465h2.331v0.463h-2.331z" fill="#acadaf"/>
  <path transform="matrix(.2691 -.9631 .9631 .2691 -61.909 849.61)" d="m527.63 465.36h2.33v0.462h-2.33z" fill="#acadaf"/>
  <path transform="matrix(.2886 -.9575 .9575 .2886 -69.017 839.07)" d="m528.95 465.75h2.332v0.462h-2.332z" fill="#acadaf"/>
  <path transform="matrix(.3091 -.951 .951 .3091 -78.824 828.45)" d="m527.39 468.24h6.711v0.463h-6.711z" fill="#acadaf"/>
  <path transform="matrix(.3284 -.9445 .9445 .3284 -83.165 816.72)" d="m531.56 466.61h2.331v0.462h-2.331z" fill="#acadaf"/>
  <path transform="matrix(.3482 -.9374 .9374 .3482 -90 805.17)" d="m532.86 467.08h2.33v0.463h-2.33z" fill="#acadaf"/>
  <path transform="matrix(.3679 -.9299 .9299 .3679 -96.637 793.44)" d="m534.14 467.57h2.33v0.462h-2.33z" fill="#acadaf"/>
  <path transform="matrix(.3873 -.922 .922 .3873 -103.01 781.65)" d="m535.41 468.09h2.332v0.463h-2.332z" fill="#acadaf"/>
  <path transform="matrix(.4068 -.9135 .9135 .4068 -111.63 769.84)" d="m533.59 470.64h6.712v0.463h-6.712z" fill="#acadaf"/>
  <path transform="matrix(.4256 -.9049 .9049 .4256 -115.18 757.45)" d="m537.92 469.23h2.331v0.462h-2.331z" fill="#acadaf"/>
  <path transform="matrix(.4442 -.8959 .8959 .4442 -120.82 745.35)" d="m539.16 469.83h2.33v0.463h-2.33z" fill="#acadaf"/>
  <path transform="matrix(.4629 -.8864 .8864 .4629 -126.35 732.84)" d="m540.38 470.45h2.331v0.463h-2.331z" fill="#acadaf"/>
  <path transform="matrix(.4817 -.8763 .8763 .4817 -131.75 719.91)" d="m541.59 471.11h2.331v0.463h-2.331z" fill="#acadaf"/>
  <path transform="matrix(.5002 -.8659 .8659 .5002 -136.86 706.93)" d="m542.78 471.79h2.331v0.462h-2.331z" fill="#acadaf"/>
  <path transform="matrix(.5001 -.866 .866 .5001 -142.22 707.02)" d="m537.62 475.76h7.27v1.851h-7.27z" fill="#acadaf"/>
  <path transform="matrix(.5178 -.8555 .8555 .5178 -141.56 694.29)" d="m543.97 472.49h2.331v0.462h-2.331z" fill="#acadaf"/>
  <path transform="matrix(.5357 -.8444 .8444 .5357 -146.14 681.11)" d="m545.13 473.22h2.332v0.463h-2.332z" fill="#acadaf"/>
  <path transform="matrix(.5532 -.8331 .8331 .5532 -150.42 667.97)" d="m546.29 473.97h2.33v0.463h-2.33z" fill="#acadaf"/>
  <path transform="matrix(.5702 -.8215 .8215 .5702 -154.41 654.84)" d="m547.42 474.74h2.331v0.462h-2.331z" fill="#acadaf"/>
  <path transform="matrix(.5879 -.8089 .8089 .5879 -160.31 640.41)" d="m545.06 477.32h6.712v0.463h-6.712z" fill="#acadaf"/>
  <path transform="matrix(.6047 -.7965 .7965 .6047 -161.85 627.11)" d="m549.64 476.37h2.332v0.463h-2.332z" fill="#acadaf"/>
  <path transform="matrix(.6211 -.7837 .7837 .6211 -165.08 613.43)" d="m550.72 477.22h2.33v0.463h-2.33z" fill="#acadaf"/>
  <path transform="matrix(.6373 -.7706 .7706 .6373 -168.05 599.57)" d="m551.79 478.08h2.331v0.462h-2.331z" fill="#acadaf"/>
  <path transform="matrix(.6532 -.7572 .7572 .6532 -170.72 585.64)" d="m552.84 478.98h2.331v0.463h-2.331z" fill="#acadaf"/>
  <path transform="matrix(.6693 -.743 .743 .6693 -174.86 570.65)" d="m550.21 481.51h6.712v0.463h-6.712z" fill="#acadaf"/>
  <path transform="matrix(.6848 -.7288 .7288 .6848 -175.29 556.86)" d="m554.88 480.83h2.332v0.462h-2.332z" fill="#acadaf"/>
  <path transform="matrix(.6995 -.7146 .7146 .6995 -177.07 542.89)" d="m555.87 481.78h2.331v0.463h-2.331z" fill="#acadaf"/>
  <path transform="matrix(.7144 -.6997 .6997 .7144 -178.6 528.39)" d="m556.84 482.75h2.331v0.463h-2.331z" fill="#acadaf"/>
  <path transform="matrix(.7288 -.6848 .6848 .7288 -179.8 514.02)" d="m557.79 483.75h2.33v0.463h-2.33z" fill="#acadaf"/>
  <path transform="matrix(.7432 -.6691 .6691 .7432 -182.11 498.47)" d="m554.9 486.23h6.712v0.463h-6.712z" fill="#acadaf"/>
  <path transform="matrix(.7569 -.6535 .6535 .7569 -181.31 484.59)" d="m559.62 485.8h2.331v0.463h-2.331z" fill="#acadaf"/>
  <path transform="matrix(.7702 -.6378 .6378 .7702 -181.59 470.2)" d="m560.5 486.85h2.332v0.462h-2.332z" fill="#acadaf"/>
  <path transform="matrix(.7835 -.6214 .6214 .7835 -181.55 455.22)" d="m561.37 487.92h2.331v0.462h-2.331z" fill="#acadaf"/>
  <path transform="matrix(.7963 -.6049 .6049 .7963 -181.18 440.43)" d="m562.21 489.01h2.331v0.463h-2.331z" fill="#acadaf"/>
  <path transform="matrix(.809 -.5878 .5878 .809 -181.56 424.45)" d="m559.06 491.41h6.712v0.463h-6.712z" fill="#acadaf"/>
  <path transform="matrix(.8212 -.5706 .5706 .8212 -179.44 410.28)" d="m563.82 491.24h2.331v0.462h-2.331z" fill="#acadaf"/>
  <path transform="matrix(.8329 -.5534 .5534 .8329 -178.09 395.43)" d="m564.59 492.38h2.331v0.463h-2.331z" fill="#acadaf"/>
  <path transform="matrix(.8445 -.5356 .5356 .8445 -176.36 380.21)" d="m565.33 493.54h2.33v0.464h-2.33z" fill="#acadaf"/>
  <path transform="matrix(.8552 -.5183 .5183 .8552 -174.4 365.67)" d="m566.05 494.71h2.331v0.463h-2.331z" fill="#acadaf"/>
  <path transform="matrix(.8659 -.5002 .5002 .8659 -172.01 350.59)" d="m566.75 495.9h2.331v0.462h-2.331z" fill="#acadaf"/>
  <path transform="matrix(.866 -.5001 .5001 .866 -173.97 348.52)" d="m559.61 497.9h7.27v1.851h-7.27z" fill="#acadaf"/>
  <path transform="matrix(.8763 -.4817 .4817 .8763 -169.25 335.41)" d="m567.42 497.1h2.331v0.463h-2.331z" fill="#acadaf"/>
  <path transform="matrix(.8862 -.4634 .4634 .8862 -166.22 320.54)" d="m568.07 498.31h2.331v0.462h-2.331z" fill="#acadaf"/>
  <path transform="matrix(.8958 -.4445 .4445 .8958 -162.76 305.41)" d="m568.69 499.54h2.331v0.463h-2.331z" fill="#acadaf"/>
  <path transform="matrix(.9047 -.4261 .4261 .9047 -159.11 290.86)" d="m569.29 500.78h2.331v0.462h-2.331z" fill="#acadaf"/>
  <path transform="matrix(.9135 -.4067 .4067 .9135 -155.45 274.94)" d="m565.66 502.92h6.713v0.463h-6.713z" fill="#acadaf"/>
  <path transform="matrix(.9219 -.3874 .3874 .9219 -150.44 260.77)" d="m570.39 503.3h2.332v0.462h-2.332z" fill="#acadaf"/>
  <path transform="matrix(.9298 -.3681 .3681 .9298 -145.66 246.06)" d="m570.91 504.57h2.332v0.463h-2.332z" fill="#acadaf"/>
  <path transform="matrix(.9372 -.3488 .3488 .9372 -140.57 231.52)" d="m571.4 505.85h2.332v0.463h-2.332z" fill="#acadaf"/>
  <path transform="matrix(.9442 -.3293 .3293 .9442 -135.11 216.97)" d="m571.86 507.15h2.331v0.462h-2.331z" fill="#acadaf"/>
  <path transform="matrix(.9511 -.3089 .3089 .9511 -129.39 201.4)" d="m568.03 509.13h6.712v0.463h-6.712z" fill="#acadaf"/>
  <path transform="matrix(.9573 -.2891 .2891 .9573 -122.93 187.67)" d="m572.7 509.77h2.331v0.462h-2.331z" fill="#acadaf"/>
  <path transform="matrix(.963 -.2694 .2694 .963 -116.5 173.57)" d="m573.08 511.09h2.331v0.462h-2.331z" fill="#acadaf"/>
  <path transform="matrix(.9686 -.2484 .2484 .9686 -109.35 158.83)" d="m573.44 512.42h2.331v0.463h-2.331z" fill="#acadaf"/>
  <path transform="matrix(.9736 -.2283 .2283 .9736 -102.17 144.84)" d="m573.76 513.76h2.331v0.464h-2.331z" fill="#acadaf"/>
  <path transform="matrix(.9782 -.2078 .2078 .9782 -94.659 130.32)" d="m569.73 515.55h6.712v0.463h-6.712z" fill="#acadaf"/>
  <path transform="matrix(.9823 -.1873 .1873 .9823 -86.6 116.95)" d="m574.32 516.45h2.33v0.463h-2.33z" fill="#acadaf"/>
  <path transform="matrix(.9859 -.1671 .1671 .9859 -78.475 103.5)" d="m574.56 517.8h2.332v0.463h-2.332z" fill="#acadaf"/>
  <path transform="matrix(.9893 -.1462 .1462 .9893 -69.734 89.763)" d="m574.77 519.16h2.332v0.463h-2.332z" fill="#acadaf"/>
  <path transform="matrix(.9921 -.1256 .1256 .9921 -60.859 76.506)" d="m574.96 520.53h2.332v0.463h-2.332z" fill="#acadaf"/>
  <path transform="matrix(.9945 -.1043 .1043 .9945 -51.356 62.736)" d="m570.74 522.12h6.712v0.463h-6.712z" fill="#acadaf"/>
  <path transform="matrix(.9965 -.0838 .0838 .9965 -41.845 50.149)" d="m575.23 523.26h2.33v0.463h-2.33z" fill="#acadaf"/>
  <path transform="matrix(.998 -.0629 .0629 .998 -31.86 37.285)" d="m575.33 524.63h2.33v0.463h-2.33z" fill="#acadaf"/>
  <path transform="matrix(.9991 -.0419 .0419 .9991 -21.548 24.626)" d="m575.4 526.01h2.33v0.463h-2.33z" fill="#acadaf"/>
  <path transform="matrix(.9998 -.0214 .0214 .9998 -11.139 12.437)" d="m575.44 527.38h2.332v0.462h-2.332z" fill="#acadaf"/>
  <path d="m575.45 528.76h2.331v0.463h-2.331z" fill="#acadaf"/>
  <path d="m567.59 528.06h7.271v1.851h-7.271z" fill="#acadaf"/>
  <path transform="matrix(.9998 .0209 -.0209 .9998 11.234 -11.959)" d="m575.43 530.13h2.332v0.463h-2.332z" fill="#acadaf"/>
  <path transform="matrix(.9991 .0419 -.0419 .9991 22.782 -23.686)" d="m575.38 531.51h2.331v0.463h-2.331z" fill="#acadaf"/>
  <path transform="matrix(.998 .0628 -.0628 .998 34.645 -35.176)" d="m575.31 532.88h2.331v0.463h-2.331z" fill="#acadaf"/>
  <path transform="matrix(.9965 .0834 -.0834 .9965 46.58 -46.203)" d="m575.21 534.25h2.33v0.463h-2.33z" fill="#acadaf"/>
  <path transform="matrix(.9945 .1043 -.1043 .9945 59.005 -56.96)" d="m570.7 535.39h6.712v0.462h-6.712z" fill="#acadaf"/>
  <path transform="matrix(.9921 .1253 -.1253 .9921 71.837 -67.934)" d="m574.91 536.99h2.331v0.463h-2.331z" fill="#acadaf"/>
  <path transform="matrix(.9893 .1462 -.1462 .9893 84.909 -78.391)" d="m574.72 538.35h2.332v0.462h-2.332z" fill="#acadaf"/>
  <path transform="matrix(.986 .1667 -.1667 .986 98.068 -88.412)" d="m574.5 539.71h2.331v0.463h-2.331z" fill="#acadaf"/>
  <path transform="matrix(.9823 .1873 -.1873 .9823 111.58 -98.208)" d="m574.25 541.06h2.33v0.462h-2.33z" fill="#acadaf"/>
  <path transform="matrix(.9781 .2081 -.2081 .9781 125.36 -107.36)" d="m569.64 541.95h6.711v0.463h-6.711z" fill="#acadaf"/>
  <path transform="matrix(.9736 .2283 -.2283 .9736 139.38 -116.88)" d="m573.67 543.75h2.331v0.461h-2.331z" fill="#acadaf"/>
  <path transform="matrix(.9685 .2488 -.2488 .9685 153.77 -125.81)" d="m573.34 545.08h2.331v0.463h-2.331z" fill="#acadaf"/>
  <path transform="matrix(.9633 .2686 -.2686 .9633 167.91 -134.12)" d="m572.98 546.41h2.331v0.463h-2.331z" fill="#acadaf"/>
  <path transform="matrix(.9573 .2891 -.2891 .9573 182.9 -142.47)" d="m572.59 547.73h2.331v0.463h-2.331z" fill="#acadaf"/>
  <path transform="matrix(.951 .3092 -.3092 .951 197.64 -149.76)" d="m567.9 548.37h6.711v0.463h-6.711z" fill="#acadaf"/>
  <path transform="matrix(.9444 .3289 -.3289 .9444 212.95 -157.79)" d="m571.73 550.34h2.331v0.462h-2.331z" fill="#acadaf"/>
  <path transform="matrix(.9375 .3481 -.3481 .9375 227.9 -164.74)" d="m571.26 551.64h2.331v0.463h-2.331z" fill="#acadaf"/>
  <path transform="matrix(.9298 .3681 -.3681 .9298 243.8 -171.7)" d="m570.77 552.92h2.332v0.463h-2.332z" fill="#acadaf"/>
  <path transform="matrix(.9219 .3874 -.3874 .9219 259.44 -178.08)" d="m570.24 554.19h2.332v0.463h-2.332z" fill="#acadaf"/>
  <path transform="matrix(.9135 .4068 -.4068 .9135 274.88 -183.43)" d="m565.5 554.56h6.712v0.463h-6.712z" fill="#acadaf"/>
  <path transform="matrix(.9049 .4256 -.4256 .9049 291.29 -189.76)" d="m569.11 556.7h2.331v0.463h-2.331z" fill="#acadaf"/>
  <path transform="matrix(.8958 .4444 -.4444 .8958 307.36 -195.01)" d="m568.51 557.94h2.332v0.463h-2.332z" fill="#acadaf"/>
  <path transform="matrix(.8863 .4631 -.4631 .8863 323.72 -199.92)" d="m567.89 559.16h2.33v0.463h-2.33z" fill="#acadaf"/>
  <path transform="matrix(.8764 .4815 -.4815 .8764 340.2 -204.43)" d="m567.23 560.37h2.332v0.462h-2.332z" fill="#acadaf"/>
  <path transform="matrix(.8662 .4997 -.4997 .8662 356.69 -208.52)" d="m566.55 561.57h2.331v0.462h-2.331z" fill="#acadaf"/>
  <path transform="matrix(.866 .5 -.5 .866 355.01 -206.62)" d="m559.41 558.18h7.271v1.851h-7.271z" fill="#acadaf"/>
  <path transform="matrix(.8552 .5182 -.5182 .8552 373.85 -212.35)" d="m565.85 562.75h2.333v0.463h-2.333z" fill="#acadaf"/>
  <path transform="matrix(.8445 .5356 -.5356 .8445 390.23 -215.56)" d="m565.12 563.92h2.33v0.462h-2.33z" fill="#acadaf"/>
  <path transform="matrix(.8331 .5532 -.5532 .8331 407.09 -218.47)" d="m564.37 565.07h2.33v0.462h-2.33z" fill="#acadaf"/>
  <path transform="matrix(.8211 .5708 -.5708 .8211 424.4 -221.03)" d="m563.59 566.2h2.33v0.463h-2.33z" fill="#acadaf"/>
  <path transform="matrix(.8091 .5877 -.5877 .8091 440.12 -222.28)" d="m558.83 566.03h6.713v0.463h-6.713z" fill="#acadaf"/>
  <path transform="matrix(.7961 .6051 -.6051 .7961 458.93 -224.84)" d="m561.97 568.42h2.332v0.463h-2.332z" fill="#acadaf"/>
  <path transform="matrix(.7839 .6209 -.6209 .7839 475.27 -226)" d="m561.12 569.51h2.331v0.462h-2.331z" fill="#acadaf"/>
  <path transform="matrix(.7708 .6371 -.6371 .7708 492.33 -226.84)" d="m560.25 570.57h2.33v0.462h-2.33z" fill="#acadaf"/>
  <path transform="matrix(.7571 .6533 -.6533 .7571 509.71 -227.29)" d="m559.36 571.62h2.332v0.463h-2.332z" fill="#acadaf"/>
  <path transform="matrix(.7433 .6689 -.6689 .7433 525.48 -226.59)" d="m554.63 571.19h6.711v0.463h-6.711z" fill="#acadaf"/>
  <path transform="matrix(.7292 .6843 -.6843 .7292 544.04 -226.9)" d="m557.51 573.66h2.33v0.462h-2.33z" fill="#acadaf"/>
  <path transform="matrix(.7146 .6995 -.6995 .7146 561.32 -226.08)" d="m556.56 574.65h2.331v0.463h-2.331z" fill="#acadaf"/>
  <path transform="matrix(.6995 .7146 -.7146 .6995 578.8 -224.83)" d="m555.59 575.62h2.33v0.463h-2.33z" fill="#acadaf"/>
  <path transform="matrix(.6846 .729 -.729 .6846 595.78 -223.18)" d="m554.59 576.57h2.331v0.462h-2.331z" fill="#acadaf"/>
  <path transform="matrix(.6691 .7432 -.7432 .6691 611.21 -220.55)" d="m549.92 575.87h6.712v0.463h-6.712z" fill="#acadaf"/>
  <path transform="matrix(.6534 .757 -.757 .6534 629.9 -218.61)" d="m552.54 578.4h2.33v0.464h-2.33z" fill="#acadaf"/>
  <path transform="matrix(.6378 .7702 -.7702 .6378 646.53 -215.75)" d="m551.49 579.29h2.33v0.463h-2.33z" fill="#acadaf"/>
  <path transform="matrix(.6212 .7837 -.7837 .6212 663.79 -212.39)" d="m550.41 580.15h2.331v0.462h-2.331z" fill="#acadaf"/>
  <path transform="matrix(.6046 .7965 -.7965 .6046 680.61 -208.67)" d="m549.33 580.99h2.331v0.463h-2.331z" fill="#acadaf"/>
  <path transform="matrix(.5878 .809 -.809 .5878 695.34 -204.23)" d="m544.74 580.04h6.712v0.463h-6.712z" fill="#acadaf"/>
  <path transform="matrix(.5706 .8212 -.8212 .5706 714.01 -199.99)" d="m547.09 582.6h2.331v0.462h-2.331z" fill="#acadaf"/>
  <path transform="matrix(.5539 .8326 -.8326 .5539 729.94 -195.18)" d="m545.96 583.37h2.331v0.463h-2.331z" fill="#acadaf"/>
  <path transform="matrix(.5356 .8445 -.8445 .5356 747.01 -189.68)" d="m544.8 584.12h2.33v0.462h-2.33z" fill="#acadaf"/>
  <path transform="matrix(.5182 .8552 -.8552 .5182 762.83 -184.07)" d="m543.63 584.84h2.333v0.463h-2.333z" fill="#acadaf"/>
  <path transform="matrix(.4999 .8661 -.8661 .4999 779.19 -177.86)" d="m542.44 585.53h2.331v0.462h-2.331z" fill="#acadaf"/>
  <path transform="matrix(.5 .866 -.866 .5 773.68 -177.9)" d="m537.28 580.17h7.271v1.852h-7.271z" fill="#acadaf"/>
  <path transform="matrix(.4819 .8762 -.8762 .4819 794.87 -171.44)" d="m541.24 586.2h2.33v0.463h-2.33z" fill="#acadaf"/>
  <path transform="matrix(.4634 .8862 -.8862 .4634 810.65 -164.55)" d="m540.03 586.85h2.331v0.463h-2.331z" fill="#acadaf"/>
  <path transform="matrix(.4449 .8956 -.8956 .4449 826.1 -157.34)" d="m538.8 587.47h2.331v0.463h-2.331z" fill="#acadaf"/>
  <path transform="matrix(.4258 .9048 -.9048 .4258 841.64 -149.65)" d="m537.56 588.07h2.33v0.462h-2.33z" fill="#acadaf"/>
  <path transform="matrix(.4068 .9135 -.9135 .4068 854.38 -142.06)" d="m533.23 586.64h6.711v0.463h-6.711z" fill="#acadaf"/>
  <path transform="matrix(.3874 .9219 -.9219 .3874 871.83 -133.28)" d="m535.04 589.18h2.332v0.463h-2.332z" fill="#acadaf"/>
  <path transform="matrix(.3679 .9299 -.9299 .3679 886.67 -124.53)" d="m533.77 589.69h2.33v0.462h-2.33z" fill="#acadaf"/>
  <path transform="matrix(.3485 .9373 -.9373 .3485 901.1 -115.52)" d="m532.48 590.18h2.332v0.464h-2.332z" fill="#acadaf"/>
  <path transform="matrix(.3288 .9444 -.9444 .3288 915.37 -106.14)" d="m531.19 590.65h2.332v0.463h-2.332z" fill="#acadaf"/>
  <path transform="matrix(.3089 .9511 -.9511 .3089 926.96 -97.212)" d="m527.02 589h6.712v0.463h-6.712z" fill="#acadaf"/>
  <path transform="matrix(.2891 .9573 -.9573 .2891 943.05 -86.453)" d="m528.57 591.48h2.331v0.463h-2.331z" fill="#acadaf"/>
  <path transform="matrix(.269 .9632 -.9632 .269 956.57 -76.097)" d="m527.25 591.86h2.331v0.463h-2.331z" fill="#acadaf"/>
  <path transform="matrix(.2488 .9685 -.9685 .2488 969.74 -65.479)" d="m525.92 592.22h2.331v0.463h-2.331z" fill="#acadaf"/>
  <path transform="matrix(.2283 .9736 -.9736 .2283 982.83 -54.426)" d="m524.58 592.54h2.331v0.462h-2.331z" fill="#acadaf"/>
  <path transform="matrix(.2078 .9782 -.9782 .2078 993.12 -44.364)" d="m520.59 590.7h6.712v0.463h-6.712z" fill="#acadaf"/>
  <path transform="matrix(.1877 .9822 -.9822 .1877 1007.7 -31.768)" d="m521.89 593.1h2.331v0.462h-2.331z" fill="#acadaf"/>
  <path transform="matrix(.1668 .986 -.986 .1668 1020 -19.813)" d="m520.53 593.34h2.33v0.463h-2.33z" fill="#acadaf"/>
  <path transform="matrix(.1466 .9892 -.9892 .1466 1031.4 -8.0026)" d="m519.18 593.56h2.331v0.462h-2.331z" fill="#acadaf"/>
  <path transform="matrix(.1257 .9921 -.9921 .1257 1043 4.4568)" d="m517.81 593.74h2.331v0.463h-2.331z" fill="#acadaf"/>
  <path transform="matrix(.1045 .9945 -.9945 .1045 1052 15.563)" d="m514.03 591.72h6.713v0.463h-6.713z" fill="#acadaf"/>
  <path transform="matrix(.0834 .9965 -.9965 .0834 1065.4 30.269)" d="m515.08 594.02h2.331v0.463h-2.331z" fill="#acadaf"/>
  <path transform="matrix(.0632 .998 -.998 .0632 1075.5 42.921)" d="m513.7 594.11h2.332v0.463h-2.332z" fill="#acadaf"/>
  <path transform="matrix(.0419 .9991 -.9991 .0419 1085.9 56.458)" d="m512.33 594.18h2.33v0.463h-2.33z" fill="#acadaf"/>
  <path transform="matrix(.0214 .9998 -.9998 .0214 1095.5 69.752)" d="m510.95 594.22h2.332v0.463h-2.332z" fill="#acadaf"/>
  <path d="m510.51 593.29h0.463v2.331h-0.463z" fill="#acadaf"/>
  <path d="m509.82 585.44h1.851v7.271h-1.851z" fill="#acadaf"/>
  <path transform="matrix(-.0209 .9998 -.9998 -.0209 1114.3 97.634)" d="m508.2 594.21h2.332v0.463h-2.332z" fill="#acadaf"/>
  <path transform="matrix(-.0419 .9991 -.9991 -.0419 1123.2 111.77)" d="m506.83 594.17h2.329v0.463h-2.329z" fill="#acadaf"/>
  <path transform="matrix(-.0624 .998 -.998 -.0624 1131.4 125.79)" d="m505.46 594.09h2.331v0.463h-2.331z" fill="#acadaf"/>
  <path transform="matrix(-.0834 .9965 -.9965 -.0834 1139.5 140.28)" d="m504.08 593.99h2.33v0.463h-2.33z" fill="#acadaf"/>
  <path transform="matrix(-.1044 .9945 -.9945 -.1044 1145.4 152.36)" d="m500.76 591.67h6.711v0.463h-6.711z" fill="#acadaf"/>
  <path transform="matrix(-.1254 .9921 -.9921 -.1254 1154.8 169.86)" d="m501.35 593.69h2.332v0.463h-2.332z" fill="#acadaf"/>
  <path transform="matrix(-.1462 .9893 -.9893 -.1462 1161.8 184.78)" d="m499.99 593.5h2.331v0.463h-2.331z" fill="#acadaf"/>
  <path transform="matrix(-.1663 .9861 -.9861 -.1663 1168.2 199.38)" d="m498.63 593.28h2.331v0.463h-2.331z" fill="#acadaf"/>
  <path transform="matrix(-.1874 .9823 -.9823 -.1874 1174.6 214.81)" d="m497.28 593.03h2.332v0.463h-2.332z" fill="#acadaf"/>
  <path transform="matrix(-.2079 .9781 -.9781 -.2079 1178.9 227.01)" d="m494.19 590.62h6.712v0.463h-6.712z" fill="#acadaf"/>
  <path transform="matrix(-.2284 .9736 -.9736 -.2284 1186 245.41)" d="m494.59 592.45h2.33v0.463h-2.33z" fill="#acadaf"/>
  <path transform="matrix(-.2485 .9686 -.9686 -.2485 1191.1 260.67)" d="m493.25 592.12h2.332v0.463h-2.332z" fill="#acadaf"/>
  <path transform="matrix(-.2688 .9632 -.9632 -.2688 1195.8 276.15)" d="m491.93 591.76h2.331v0.463h-2.331z" fill="#acadaf"/>
  <path transform="matrix(-.2893 .9572 -.9572 -.2893 1200.3 291.99)" d="m490.61 591.37h2.331v0.463h-2.331z" fill="#acadaf"/>
  <path transform="matrix(-.309 .9511 -.9511 -.309 1203.2 304.05)" d="m487.78 588.88h6.712v0.462h-6.712z" fill="#acadaf"/>
  <path transform="matrix(-.3289 .9444 -.9444 -.3289 1207.9 323.09)" d="m487.99 590.51h2.331v0.463h-2.331z" fill="#acadaf"/>
  <path transform="matrix(-.3485 .9373 -.9373 -.3485 1211.1 338.67)" d="m486.7 590.04h2.332v0.463h-2.332z" fill="#acadaf"/>
  <path transform="matrix(-.3681 .9298 -.9298 -.3681 1214.1 354.46)" d="m485.42 589.55h2.331v0.463h-2.331z" fill="#acadaf"/>
  <path transform="matrix(-.3873 .922 -.922 -.3873 1216.5 370.01)" d="m484.14 589.03h2.331v0.463h-2.331z" fill="#acadaf"/>
  <path transform="matrix(-.4068 .9135 -.9135 -.4068 1218.2 382.36)" d="m481.58 586.47h6.712v0.463h-6.712z" fill="#acadaf"/>
  <path transform="matrix(-.4258 .9048 -.9048 -.4258 1220.5 401.71)" d="m481.64 587.9h2.331v0.463h-2.331z" fill="#acadaf"/>
  <path transform="matrix(-.4444 .8958 -.8958 -.4444 1221.9 417.19)" d="m480.4 587.29h2.331v0.463h-2.331z" fill="#acadaf"/>
  <path transform="matrix(-.4629 .8864 -.8864 -.4629 1222.9 432.79)" d="m479.18 586.67h2.331v0.463h-2.331z" fill="#acadaf"/>
  <path transform="matrix(-.4814 .8765 -.8765 -.4814 1223.6 448.5)" d="m477.96 586.01h2.332v0.462h-2.332z" fill="#acadaf"/>
  <path transform="matrix(-.5002 .8659 -.8659 -.5002 1224 464.61)" d="m476.77 585.33h2.331v0.463h-2.331z" fill="#acadaf"/>
  <path transform="matrix(-.5 .866 -.866 -.5 1224 455.13)" d="m477 579.97h7.271v1.851h-7.271z" fill="#acadaf"/>
  <path transform="matrix(-.5178 .8555 -.8555 -.5178 1224 479.85)" d="m475.59 584.63h2.331v0.462h-2.331z" fill="#acadaf"/>
  <path transform="matrix(-.5357 .8444 -.8444 -.5357 1223.6 495.51)" d="m474.42 583.9h2.33v0.463h-2.33z" fill="#acadaf"/>
  <path transform="matrix(-.5531 .8331 -.8331 -.5531 1222.9 510.8)" d="m473.27 583.15h2.331v0.462h-2.331z" fill="#acadaf"/>
  <path transform="matrix(-.5705 .8213 -.8213 -.5705 1221.8 526.27)" d="m472.13 582.38h2.331v0.462h-2.331z" fill="#acadaf"/>
  <path transform="matrix(-.5877 .8091 -.8091 -.5877 1221 537.86)" d="m470.11 579.8h6.712v0.463h-6.712z" fill="#acadaf"/>
  <path transform="matrix(-.6045 .7966 -.7966 -.6045 1218.7 556.96)" d="m469.92 580.75h2.332v0.463h-2.332z" fill="#acadaf"/>
  <path transform="matrix(-.6212 .7836 -.7836 -.6212 1216.6 572.24)" d="m468.83 579.9h2.33v0.462h-2.33z" fill="#acadaf"/>
  <path transform="matrix(-.6373 .7707 -.7707 -.6373 1214.2 587.03)" d="m467.76 579.03h2.332v0.463h-2.332z" fill="#acadaf"/>
  <path transform="matrix(-.6536 .7568 -.7568 -.6536 1211.4 602.29)" d="m466.72 578.15h2.332v0.463h-2.332z" fill="#acadaf"/>
  <path transform="matrix(-.6691 .7432 -.7432 -.6691 1209.6 613.1)" d="m464.96 575.6h6.712v0.463h-6.712z" fill="#acadaf"/>
  <path transform="matrix(-.6844 .7291 -.7291 -.6844 1205 631.5)" d="m464.68 576.3h2.331v0.463h-2.331z" fill="#acadaf"/>
  <path transform="matrix(-.6995 .7146 -.7146 -.6995 1201.3 646.01)" d="m463.69 575.34h2.331v0.463h-2.331z" fill="#acadaf"/>
  <path transform="matrix(-.7144 .6997 -.6997 -.7144 1197.4 660.5)" d="m462.72 574.37h2.331v0.462h-2.331z" fill="#acadaf"/>
  <path transform="matrix(-.7288 .6848 -.6848 -.7288 1193.1 674.61)" d="m461.77 573.37h2.332v0.462h-2.332z" fill="#acadaf"/>
  <path transform="matrix(-.7432 .6691 -.6691 -.7432 1190.3 685.34)" d="m460.28 570.89h6.712v0.463h-6.712z" fill="#acadaf"/>
  <path transform="matrix(-.7569 .6535 -.6535 -.7569 1183.6 702.86)" d="m459.94 571.32h2.331v0.463h-2.331z" fill="#acadaf"/>
  <path transform="matrix(-.7704 .6376 -.6376 -.7704 1178.5 716.57)" d="m459.05 570.27h2.331v0.463h-2.331z" fill="#acadaf"/>
  <path transform="matrix(-.7835 .6214 -.6214 -.7835 1173.1 730.16)" d="m458.19 569.2h2.331v0.462h-2.331z" fill="#acadaf"/>
  <path transform="matrix(-.7963 .6049 -.6049 -.7963 1167.4 743.57)" d="m457.35 568.11h2.331v0.462h-2.331z" fill="#acadaf"/>
  <path transform="matrix(-.809 .5878 -.5878 -.809 1163.8 753.76)" d="m456.11 565.72h6.712v0.462h-6.712z" fill="#acadaf"/>
  <path transform="matrix(-.8212 .5706 -.5706 -.8212 1155.2 770.26)" d="m455.74 565.88h2.331v0.462h-2.331z" fill="#acadaf"/>
  <path transform="matrix(-.8329 .5534 -.5534 -.8329 1148.7 783.08)" d="m454.97 564.74h2.331v0.463h-2.331z" fill="#acadaf"/>
  <path transform="matrix(-.8442 .536 -.536 -.8442 1142 795.71)" d="m454.22 563.58h2.33v0.463h-2.33z" fill="#acadaf"/>
  <path transform="matrix(-.8552 .5182 -.5182 -.8552 1135.1 808.22)" d="m453.5 562.41h2.331v0.462h-2.331z" fill="#acadaf"/>
  <path transform="matrix(-.8661 .4999 -.4999 -.8661 1127.8 820.8)" d="m452.81 561.22h2.331v0.462h-2.331z" fill="#acadaf"/>
  <path transform="matrix(-.866 .5 -.5 -.866 1135.2 813.34)" d="m455 557.83h7.272v1.852h-7.272z" fill="#acadaf"/>
  <path transform="matrix(-.8761 .482 -.482 -.8761 1120.5 832.61)" d="m452.13 560.02h2.332v0.464h-2.332z" fill="#acadaf"/>
  <path transform="matrix(-.8863 .4632 -.4632 -.8863 1112.8 844.86)" d="m451.49 558.81h2.33v0.463h-2.33z" fill="#acadaf"/>
  <path transform="matrix(-.8956 .4449 -.4449 -.8956 1105 856.24)" d="m450.87 557.58h2.331v0.463h-2.331z" fill="#acadaf"/>
  <path transform="matrix(-.9045 .4265 -.4265 -.9045 1097.1 867.47)" d="m450.27 556.34h2.331v0.462h-2.331z" fill="#acadaf"/>
  <path transform="matrix(-.9135 .4068 -.4068 -.9135 1092.1 876.66)" d="m449.51 554.2h6.711v0.463h-6.711z" fill="#acadaf"/>
  <path transform="matrix(-.9219 .3874 -.3874 -.9219 1080.1 890.36)" d="m449.16 553.83h2.332v0.463h-2.332z" fill="#acadaf"/>
  <path transform="matrix(-.9296 .3686 -.3686 -.9296 1071.7 900.81)" d="m448.64 552.55h2.331v0.462h-2.331z" fill="#acadaf"/>
  <path transform="matrix(-.9371 .349 -.349 -.9371 1062.8 911.53)" d="m448.16 551.27h2.331v0.463h-2.331z" fill="#acadaf"/>
  <path transform="matrix(-.9443 .3291 -.3291 -.9443 1053.8 922.01)" d="m447.69 549.97h2.332v0.463h-2.332z" fill="#acadaf"/>
  <path transform="matrix(-.9511 .3089 -.3089 -.9511 1048.3 930.47)" d="m447.15 547.99h6.712v0.463h-6.712z" fill="#acadaf"/>
  <path transform="matrix(-.9573 .2891 -.2891 -.9573 1035.2 942.24)" d="m446.85 547.35h2.33v0.463h-2.33z" fill="#acadaf"/>
  <path transform="matrix(-.9632 .2689 -.2689 -.9632 1025.7 952.03)" d="m446.47 546.03h2.331v0.463h-2.331z" fill="#acadaf"/>
  <path transform="matrix(-.9686 .2485 -.2485 -.9686 1016 961.62)" d="m446.12 544.7h2.33v0.463h-2.33z" fill="#acadaf"/>
  <path transform="matrix(-.9736 .2283 -.2283 -.9736 1006.2 970.81)" d="m445.79 543.36h2.332v0.462h-2.332z" fill="#acadaf"/>
  <path transform="matrix(-.9781 .2079 -.2079 -.9781 1000.4 978.44)" d="m445.45 541.57h6.712v0.462h-6.712z" fill="#acadaf"/>
  <path transform="matrix(-.9823 .1872 -.1872 -.9823 986.18 988.65)" d="m445.23 540.67h2.331v0.463h-2.331z" fill="#acadaf"/>
  <path transform="matrix(-.9859 .1671 -.1671 -.9859 976.23 996.93)" d="m444.99 539.32h2.331v0.463h-2.331z" fill="#acadaf"/>
  <path transform="matrix(-.9893 .1458 -.1458 -.9893 965.6 1005.6)" d="m444.78 537.96h2.331v0.464h-2.331z" fill="#acadaf"/>
  <path transform="matrix(-.9921 .1257 -.1257 -.9921 955.45 1013.4)" d="m444.6 536.59h2.331v0.463h-2.331z" fill="#acadaf"/>
  <path transform="matrix(-.9945 .1043 -.1043 -.9945 948.96 1020.8)" d="m444.43 535h6.713v0.462h-6.713z" fill="#acadaf"/>
  <path transform="matrix(-.9965 .0838 -.0838 -.9965 934.15 1029)" d="m444.32 533.86h2.331v0.463h-2.331z" fill="#acadaf"/>
  <path transform="matrix(-.998 .0628 -.0628 -.998 923.37 1036.4)" d="m444.22 532.49h2.331v0.463h-2.331z" fill="#acadaf"/>
  <path transform="matrix(-.9991 .0423 -.0423 -.9991 912.73 1043.4)" d="m444.16 531.11h2.331v0.462h-2.331z" fill="#acadaf"/>
  <path transform="matrix(-.9998 .0209 -.0209 -.9998 901.56 1050.5)" d="m444.11 529.74h2.332v0.463h-2.332z" fill="#acadaf"/>
  <path d="m444.11 528.36h2.331v0.463h-2.331z" fill="#acadaf"/>
  <path d="m447.03 527.67h7.271v1.851h-7.271z" fill="#acadaf"/>
  <path transform="matrix(-.9998 -.0205 .0205 -.9998 879.67 1063.5)" d="m444.12 526.99h2.332v0.462h-2.332z" fill="#acadaf"/>
  <path transform="matrix(-.9991 -.0419 .0419 -.9991 868.25 1069.9)" d="m444.17 525.61h2.331v0.462h-2.331z" fill="#acadaf"/>
  <path transform="matrix(-.998 -.0624 .0624 -.998 857.21 1075.7)" d="m444.25 524.24h2.331v0.463h-2.331z" fill="#acadaf"/>
  <path transform="matrix(-.9965 -.0834 .0834 -.9965 845.86 1081.5)" d="m444.35 522.87h2.33v0.463h-2.33z" fill="#acadaf"/>
  <path transform="matrix(-.9945 -.1045 .1045 -.9945 838.67 1087.8)" d="m444.47 521.73h6.711v0.462h-6.711z" fill="#acadaf"/>
  <path transform="matrix(-.9921 -.1252 .1252 -.9921 822.95 1092.5)" d="m444.65 520.13h2.331v0.463h-2.331z" fill="#acadaf"/>
  <path transform="matrix(-.9893 -.1462 .1462 -.9893 811.34 1097.6)" d="m444.84 518.77h2.331v0.463h-2.331z" fill="#acadaf"/>
  <path transform="matrix(-.9861 -.1663 .1663 -.9861 800.13 1102.3)" d="m445.06 517.41h2.331v0.463h-2.331z" fill="#acadaf"/>
  <path transform="matrix(-.9823 -.1872 .1872 -.9823 788.42 1107)" d="m445.3 516.06h2.332v0.463h-2.332z" fill="#acadaf"/>
  <path transform="matrix(-.9781 -.2079 .2079 -.9781 780.8 1112.9)" d="m445.53 515.17h6.712v0.462h-6.712z" fill="#acadaf"/>
  <path transform="matrix(-.9736 -.2284 .2284 -.9736 765.01 1115.7)" d="m445.89 513.37h2.331v0.462h-2.331z" fill="#acadaf"/>
  <path transform="matrix(-.9686 -.2484 .2484 -.9686 753.47 1119.6)" d="m446.22 512.04h2.331v0.463h-2.331z" fill="#acadaf"/>
  <path transform="matrix(-.9632 -.2686 .2686 -.9632 741.78 1123.4)" d="m446.58 510.71h2.33v0.462h-2.33z" fill="#acadaf"/>
  <path transform="matrix(-.9573 -.289 .289 -.9573 729.85 1127)" d="m446.96 509.39h2.331v0.463h-2.331z" fill="#acadaf"/>
  <path transform="matrix(-.951 -.3091 .3091 -.951 721.83 1132.3)" d="m447.27 508.75h6.713v0.463h-6.713z" fill="#acadaf"/>
  <path transform="matrix(-.9443 -.3292 .3292 -.9443 706.05 1133.6)" d="m447.83 506.77h2.332v0.463h-2.332z" fill="#acadaf"/>
  <path transform="matrix(-.9374 -.3482 .3482 -.9374 694.73 1136.3)" d="m448.3 505.48h2.331v0.463h-2.331z" fill="#acadaf"/>
  <path transform="matrix(-.9299 -.3679 .3679 -.9299 682.76 1139)" d="m448.79 504.2h2.33v0.462h-2.33z" fill="#acadaf"/>
  <path transform="matrix(-.922 -.3872 .3872 -.922 671.02 1141.5)" d="m449.31 502.93h2.331v0.462h-2.331z" fill="#acadaf"/>
  <path transform="matrix(-.9135 -.4069 .4069 -.9135 662.27 1146.4)" d="m449.67 502.56h6.713v0.463h-6.713z" fill="#acadaf"/>
  <path transform="matrix(-.9049 -.4257 .4257 -.9049 647.11 1145.9)" d="m450.44 500.42h2.331v0.463h-2.331z" fill="#acadaf"/>
  <path transform="matrix(-.896 -.4441 .4441 -.896 635.58 1147.7)" d="m451.04 499.18h2.331v0.462h-2.331z" fill="#acadaf"/>
  <path transform="matrix(-.8863 -.4631 .4631 -.8863 623.5 1149.4)" d="m451.67 497.96h2.33v0.464h-2.33z" fill="#acadaf"/>
  <path transform="matrix(-.8764 -.4816 .4816 -.8764 611.55 1150.9)" d="m452.32 496.75h2.332v0.463h-2.332z" fill="#acadaf"/>
  <path transform="matrix(-.8659 -.5002 .5002 -.8659 599.46 1152.3)" d="m453.01 495.55h2.331v0.462h-2.331z" fill="#acadaf"/>
  <path transform="matrix(-.866 -.5001 .5001 -.866 606.92 1159.6)" d="m455.2 497.55h7.271v1.851h-7.271z" fill="#acadaf"/>
  <path transform="matrix(-.8553 -.5181 .5181 -.8553 587.66 1153.3)" d="m453.71 494.37h2.331v0.463h-2.331z" fill="#acadaf"/>
  <path transform="matrix(-.8442 -.536 .536 -.8442 575.75 1154.2)" d="m454.44 493.2h2.33v0.463h-2.33z" fill="#acadaf"/>
  <path transform="matrix(-.8329 -.5534 .5534 -.8329 563.99 1154.9)" d="m455.19 492.05h2.331v0.463h-2.331z" fill="#acadaf"/>
  <path transform="matrix(-.8212 -.5706 .5706 -.8212 552.25 1155.3)" d="m455.96 490.92h2.331v0.463h-2.331z" fill="#acadaf"/>
  <path transform="matrix(-.8091 -.5877 .5877 -.8091 542.86 1159)" d="m456.34 491.08h6.711v0.462h-6.711z" fill="#acadaf"/>
  <path transform="matrix(-.7964 -.6048 .6048 -.7964 528.41 1155.8)" d="m457.59 488.7h2.332v0.463h-2.332z" fill="#acadaf"/>
  <path transform="matrix(-.7838 -.621 .621 -.7838 516.88 1155.6)" d="m458.44 487.61h2.331v0.462h-2.331z" fill="#acadaf"/>
  <path transform="matrix(-.7709 -.637 .637 -.7709 505.36 1155.3)" d="m459.3 486.55h2.33v0.463h-2.33z" fill="#acadaf"/>
  <path transform="matrix(-.757 -.6534 .6534 -.757 493.23 1154.9)" d="m460.19 485.5h2.333v0.463h-2.333z" fill="#acadaf"/>
  <path transform="matrix(-.7431 -.6691 .6691 -.7431 483.32 1157.9)" d="m460.54 485.93h6.712v0.463h-6.712z" fill="#acadaf"/>
  <path transform="matrix(-.7291 -.6844 .6844 -.7291 469.86 1153.4)" d="m462.04 483.46h2.33v0.462h-2.33z" fill="#acadaf"/>
  <path transform="matrix(-.7146 -.6995 .6995 -.7146 458.19 1152.3)" d="m463 482.47h2.331v0.463h-2.331z" fill="#acadaf"/>
  <path transform="matrix(-.6997 -.7144 .7144 -.6997 446.46 1151.1)" d="m463.97 481.5h2.331v0.462h-2.331z" fill="#acadaf"/>
  <path transform="matrix(-.6847 -.7289 .7289 -.6847 434.85 1149.7)" d="m464.97 480.55h2.331v0.463h-2.331z" fill="#acadaf"/>
  <path transform="matrix(-.6691 -.7432 .7432 -.6691 424.34 1151.9)" d="m465.26 481.25h6.712v0.463h-6.712z" fill="#acadaf"/>
  <path transform="matrix(-.6533 -.7571 .7571 -.6533 411.41 1146.3)" d="m467.02 478.72h2.332v0.463h-2.332z" fill="#acadaf"/>
  <path transform="matrix(-.6374 -.7706 .7706 -.6374 399.94 1144.3)" d="m468.07 477.83h2.332v0.463h-2.332z" fill="#acadaf"/>
  <path transform="matrix(-.6214 -.7835 .7835 -.6214 388.64 1142.2)" d="m469.14 476.97h2.331v0.462h-2.331z" fill="#acadaf"/>
  <path transform="matrix(-.6047 -.7965 .7965 -.6047 377.03 1139.9)" d="m470.23 476.13h2.332v0.463h-2.332z" fill="#acadaf"/>
  <path transform="matrix(-.5878 -.809 .809 -.5878 366.09 1141.2)" d="m470.43 477.08h6.712v0.463h-6.712z" fill="#acadaf"/>
  <path transform="matrix(-.5705 -.8213 .8213 -.5705 353.88 1134.6)" d="m472.46 474.52h2.332v0.463h-2.332z" fill="#acadaf"/>
  <path transform="matrix(-.5538 -.8327 .8327 -.5538 343.02 1131.8)" d="m473.6 473.75h2.33v0.462h-2.33z" fill="#acadaf"/>
  <path transform="matrix(-.5364 -.8439 .8439 -.5364 331.83 1128.7)" d="m474.76 473.01h2.329v0.462h-2.329z" fill="#acadaf"/>
  <path transform="matrix(-.5181 -.8553 .8553 -.5181 320.14 1125.4)" d="m475.93 472.28h2.331v0.463h-2.331z" fill="#acadaf"/>
  <path transform="matrix(-.5 -.866 .866 -.5 308.84 1121.9)" d="m477.11 471.59h2.331v0.463h-2.331z" fill="#acadaf"/>
  <path transform="matrix(-.5 -.866 .866 -.5 308.79 1131.3)" d="m477.34 475.56h7.271v1.851h-7.271z" fill="#acadaf"/>
  <path transform="matrix(-.4819 -.8762 .8762 -.4819 297.7 1118.3)" d="m478.31 470.92h2.332v0.462h-2.332z" fill="#acadaf"/>
  <path transform="matrix(-.4631 -.8863 .8863 -.4631 286.27 1114.4)" d="m479.53 470.27h2.33v0.463h-2.33z" fill="#acadaf"/>
  <path transform="matrix(-.4449 -.8956 .8956 -.4449 275.49 1110.5)" d="m480.76 469.65h2.33v0.463h-2.33z" fill="#acadaf"/>
  <path transform="matrix(-.426 -.9047 .9047 -.426 264.39 1106.3)" d="m481.99 469.05h2.33v0.463h-2.33z" fill="#acadaf"/>
  <path transform="matrix(-.4067 -.9136 .9136 -.4067 252.66 1105.5)" d="m481.95 470.48h6.711v0.463h-6.711z" fill="#acadaf"/>
  <path transform="matrix(-.3874 -.9219 .9219 -.3874 242.24 1097.3)" d="m484.51 467.94h2.332v0.463h-2.332z" fill="#acadaf"/>
  <path transform="matrix(-.3681 -.9298 .9298 -.3681 231.38 1092.6)" d="m485.79 467.43h2.331v0.463h-2.331z" fill="#acadaf"/>
  <path transform="matrix(-.3488 -.9372 .9372 -.3488 220.69 1087.7)" d="m487.07 466.94h2.331v0.463h-2.331z" fill="#acadaf"/>
  <path transform="matrix(-.3291 -.9443 .9443 -.3291 209.96 1082.6)" d="m488.37 466.47h2.332v0.463h-2.332z" fill="#acadaf"/>
  <path transform="matrix(-.309 -.9511 .9511 -.309 197.93 1080.5)" d="m488.16 468.12h6.712v0.463h-6.712z" fill="#acadaf"/>
  <path transform="matrix(-.289 -.9573 .9573 -.289 188.4 1071.7)" d="m490.99 465.64h2.33v0.463h-2.33z" fill="#acadaf"/>
  <path transform="matrix(-.2692 -.9631 .9631 -.2692 177.99 1066)" d="m492.31 465.26h2.331v0.462h-2.331z" fill="#acadaf"/>
  <path transform="matrix(-.2486 -.9686 .9686 -.2486 167.31 1060)" d="m493.64 464.9h2.331v0.463h-2.331z" fill="#acadaf"/>
  <path transform="matrix(-.2287 -.9735 .9735 -.2287 157.13 1054.1)" d="m494.97 464.58h2.331v0.462h-2.331z" fill="#acadaf"/>
  <path transform="matrix(-.2078 -.9782 .9782 -.2078 144.97 1050.7)" d="m494.58 466.42h6.712v0.463h-6.712z" fill="#acadaf"/>
  <path transform="matrix(-.1872 -.9823 .9823 -.1872 136.2 1041.2)" d="m497.67 464.02h2.331v0.463h-2.331z" fill="#acadaf"/>
  <path transform="matrix(-.1669 -.986 .986 -.1669 126.18 1034.6)" d="m499.02 463.78h2.332v0.463h-2.332z" fill="#acadaf"/>
  <path transform="matrix(-.146 -.9893 .9893 -.146 115.96 1027.7)" d="m500.38 463.56h2.331v0.463h-2.331z" fill="#acadaf"/>
  <path transform="matrix(-.1255 -.9921 .9921 -.1255 106.07 1020.7)" d="m501.74 463.38h2.331v0.463h-2.331z" fill="#acadaf"/>
  <path transform="matrix(-.1045 -.9945 .9945 -.1045 94.116 1016)" d="m501.15 465.4h6.713v0.463h-6.713z" fill="#acadaf"/>
  <path transform="matrix(-.0834 -.9965 .9965 -.0834 86.091 1005.9)" d="m504.48 463.1h2.33v0.463h-2.33z" fill="#acadaf"/>
  <path transform="matrix(-.0631 -.998 .998 -.0631 76.673 998.46)" d="m505.85 463.01h2.331v0.463h-2.331z" fill="#acadaf"/>
  <path transform="matrix(-.0423 -.9991 .9991 -.0423 67.156 990.71)" d="m507.23 462.94h2.33v0.462h-2.33z" fill="#acadaf"/>
  <path transform="matrix(-.0212 -.9998 .9998 -.0212 57.524 982.58)" d="m508.6 462.9h2.332v0.463h-2.332z" fill="#acadaf"/>
  <path d="m510.91,461.957h.463v2.331h-.463z" fill="#acadaf"/>
  <path d="m510.22 464.88h1.851v7.271h-1.851z" fill="#acadaf"/>
  <path d="m549.89,488.506 .001-.002-.001-.002 .845-2.309 .849-2.312-2.211,1.086-2.206,1.084-.001-.001-.001.002l-35.597,40.793 1.474,1.326 36.848-39.665z" fill="#fff"/>
  <path d="m514.36 528.79a3.217 3.217 0 1 0 -6.434 0 3.217 3.217 0 1 0 6.434 0" fill="#fff"/>
  <path d="m546.738,487.885-33.756,38.123 .743.669 34.385-37.557-1.372-1.235z" fill="#acadaf"/>
  <path d="m513.99 528.79a2.845 2.845 0 1 0 -5.69 0 2.845 2.845 0 1 0 5.69 0" fill="#fff"/>
  <path d="m512.89 528.79a1.745 1.745 0 1 0 -3.49 0 1.745 1.745 0 1 0 3.49 0" fill="#acadaf"/>
  <path d="m512.65 528.79a1.507 1.507 0 1 0 -3.014 0 1.507 1.507 0 1 0 3.014 0" fill="#fff"/>
  <path d="m510.31,526.551-28.887-17.268-.003-.002-.002.003-2.919-.445-2.924-.448 1.848,2.311 1.846,2.304-.002.003 .004.002 29.397,16.383 1.642-2.843z" fill="#fff"/>
  <path d="m509.59 527.1-27.449-16.135-1.047 1.814 27.698 15.704 0.798-1.383z" fill="#949494"/>
  <path d="m501.87,494.633h2.344v.694h-3.556l2.397-4.19h-2.005v-.694h3.217l-2.397,4.19z" fill="#ccc"/>
  <path d="m507.771,491.137h-1.958v1.172h1.901v.693h-1.901v1.631h1.958v.694h-2.695v-4.885h2.695v.695z" fill="#ccc"/>
  <path d="m509.476,493.342v1.985h-.737v-4.885h.835c.409,0 .718.028.927.086s.396.164.557.322c.281.274.421.62.421,1.037 0,.447-.15.801-.449,1.062s-.704.392-1.212.392h-.342v.001zm0-.683h.275c.677,0 1.016-.261 1.016-.781 0-.504-.349-.756-1.047-.756h-.244v1.537z" fill="#ccc"/>
  <path d="m512.97 490.44v4.19h1.437v0.694h-2.174v-4.885h0.737v1e-3z" fill="#ccc"/>
  <path d="m515.85 490.44v4.885h-0.738v-4.885h0.738z" fill="#ccc"/>
  <path d="m517.02,495.327v-5.217l3.561,3.727v-3.395h.738v5.181l-3.562-3.716v3.42h-.737z" fill="#ccc"/>
  <path d="m502.845,497.845c-.22-.008-.417.11-.511.196-.102.095-.126.166-.149.158s.016-.103.11-.205c.087-.086.284-.244.575-.229 .228.009.433.158.433.449 0,.582-.755,1.282-1.581,1.25-.551-.016-.889-.228-.874-.707 .031-.921 1.298-1.652 2.73-1.652 .605,0 1.007.149 1.243.291 .134-.103.362-.236.551-.314 .181-.079.503-.166.795-.166 .251,0 .487.071.574.213 .016.031.024.062 0,.07-.016,0-.016-.016-.047-.047-.094-.103-.283-.165-.519-.165s-.52.062-.748.165c-.212.095-.409.221-.52.307 .292.244.543.708.158,1.259-.315.464-.913.566-1.18.59-.134.008-.322,0-.394-.023-.527.566-1.054.818-1.321.929v.008c.22.039.614.118.794.118 .228,0 .448-.04.637-.174 .079-.055.086-.078.102-.062 .016.008.008.055-.07.126-.181.157-.441.268-.755.268-.346,0-.724-.079-1.007-.149-.322.118-.802.165-1.211.165-.283,0-.716-.039-.716-.26 0-.204.315-.33.811-.307 .338.016.936.142 1.267.22 .44-.259.794-.668 1.258-1.227 .378-.465.905-1.109 1.432-1.464-.165-.125-.622-.299-1.117-.299-1.298,0-2.344.638-2.415,1.621-.024.314.149.574.543.598 .786.031 1.455-.739 1.455-1.195-.002-.199-.144-.348-.333-.356zm-2.124,2.281c-.385-.031-.676-.016-.676.126 0,.149.401.181.613.181 .401,0 .874-.055 1.086-.134-.275-.055-.74-.157-1.023-.173zm3.123-.912c.37-.048.708-.275.944-.614 .299-.425.205-.857.016-1.046-.362.314-.818,1.117-1.085,1.455-.079.103-.134.165-.166.197 .063.016.174.023.291.008z" fill="#ccc"/>
  <path d="m506.519,499.072c.165-.008.181.031.102.125-.102.118-.275.315-.44.52-.102.126-.205.26-.275.386-.055.095-.055.157-.023.181 .04.031.118,0 .181-.031 .079-.039.229-.142.354-.244 .166-.134.291-.243.378-.322 .047-.039.086-.078.11-.055s-.016.062-.103.142c-.103.094-.291.259-.44.377-.157.126-.417.315-.677.315-.149,0-.22-.071-.228-.166-.008-.086.04-.196.11-.283l-.008-.008c-.204.182-.566.44-.865.457-.173.008-.354-.063-.322-.315 .016-.118.079-.243.22-.409l-.008-.008c-.024.023-.055.056-.103.095-.031.023-.055.039-.071.023s.023-.07.11-.149l.236-.188c.079-.056.212-.142.362-.221 .307-.157.582-.252.787-.22 .157.023.212.165.166.299 .187-.199.321-.301.447-.301zm-1.369.574c-.323.314-.457.519-.441.621 .008.055.047.079.103.079 .149,0 .448-.173.661-.37 .252-.221.535-.559.543-.685 .008-.102-.055-.142-.142-.142-.158.001-.44.214-.724.497z" fill="#ccc"/>
  <path d="m508.187,500.26c.008-.173.181-.37.331-.551 .118-.142.236-.275.331-.385 .031-.04.047-.087.008-.11s-.126.008-.205.047c-.142.07-.362.204-.614.401-.346.268-.535.448-.881.716-.071.055-.118.07-.205.07-.11,0-.165-.016-.102-.126 .055-.102.22-.361.346-.526 .086-.118.228-.299.314-.409 .055-.071.071-.11.055-.134-.023-.031-.071-.016-.118.008-.094.047-.212.134-.307.212l-.338.3c-.079.07-.11.094-.134.07s.023-.062.118-.149c.094-.086.268-.252.409-.362 .212-.165.37-.259.535-.259 .149,0 .197.086.197.173 0,.095-.063.196-.166.338-.118.157-.283.37-.37.496l.008.008c.189-.157.448-.386.724-.59s.621-.425.857-.425c.165,0 .259.078.244.212-.023.142-.188.323-.314.48-.126.149-.22.283-.26.346-.063.103-.063.149-.031.173 .039.031.125,0 .188-.031 .095-.047.205-.11.378-.244 .134-.102.291-.243.377-.322 .063-.055.086-.062.102-.047 .016.016-.008.047-.063.102-.071.071-.307.283-.472.409-.157.118-.464.315-.708.315-.148-.001-.242-.072-.234-.206z" fill="#ccc"/>
  <path d="m509.862,499.528-.283.236c-.063.055-.094.078-.118.062s0-.047.086-.126 .37-.314.559-.44c.205-.142.307-.173.457-.173 .165,0 .181.023.086.126-.142.157-.268.307-.425.503-.134.165-.228.307-.275.386-.047.087-.055.142-.023.173 .04.032.11.016.189-.023s.212-.126.346-.236c.165-.134.236-.196.362-.314 .071-.062.102-.094.126-.07s-.063.102-.087.125c-.094.095-.291.268-.448.394s-.425.323-.685.323c-.165,0-.236-.079-.236-.205 0-.103.055-.204.118-.299 .157-.244.464-.566.59-.677-.055.022-.221.141-.339.235zm1.44-1.503c.103,0 .149.087.055.205-.094.126-.291.212-.37.212-.039-.047-.047-.165-.008-.268 .047-.118.165-.149.315-.149h.008z" fill="#ccc"/>
  <path d="m511.176,499.473c-.118.103-.212.189-.299.268-.047.04-.071.048-.086.024s.016-.048.04-.071l.503-.44c.268-.354.598-.779.959-1.18 .457-.527 1.353-1.464 1.826-1.817 .228-.165.44-.315.668-.315 .205,0 .268.142.244.284-.062.377-.818,1.007-1.613,1.667-.48.394-1.141.866-1.605,1.282-.133.15-.527.716-.629.866l.016.008c.22-.197.409-.378.676-.583 .142-.109.37-.259.52-.322 .133-.055.267-.078.394-.07 .212.016.33.165.259.314-.055.103-.189.142-.37.165-.157.023-.291.039-.338.11s-.071.181-.063.322c.016.189.055.275.134.291 .055.008.118-.016.205-.062 .071-.039.173-.103.299-.205 .166-.134.283-.235.378-.322 .008-.008.079-.07.102-.047 .023.031-.055.094-.079.117-.102.095-.275.252-.464.401-.149.118-.432.308-.676.308-.157,0-.275-.103-.268-.37 .008-.205.11-.37.173-.433 .071-.071.212-.118.323-.134 .086-.016.181-.039.244-.11 .047-.055.087-.188-.008-.228-.055-.024-.157,0-.244.039-.205.095-.362.204-.598.394-.338.283-.716.637-.865.747-.079.055-.118.078-.205.078-.126,0-.157-.023-.11-.126 .07-.157.188-.33.322-.526l.236-.314v-.01h-.001zm2.172-1.667c.747-.653 1.455-1.282 1.487-1.629 .007-.103-.048-.149-.134-.149-.134,0-.346.157-.512.314-.259.26-.637.638-1.046,1.125-.362.433-.582.692-1.203,1.503 .747-.654 1.045-.85 1.408-1.164z" fill="#ccc"/>
  <path d="m514.858,499.449c-.118.103-.236.213-.323.291-.047.04-.071.048-.086.024s.016-.048.04-.071l.574-.496c.205-.259.59-.739.928-1.124 .268-.315.59-.661.937-.976 .095-.087.181-.134.283-.134 .078,0 .118.031.118.055-.149.149-.843.913-1.173,1.306-.526.638-1.093,1.369-1.258,1.731-.023.055-.071.165-.016.212 .055.04.173-.008.244-.047 .102-.056.212-.134.322-.221 .142-.11.244-.196.346-.291 .032-.031.095-.086.118-.062s-.008.047-.055.094c-.094.095-.291.268-.479.409-.157.118-.449.315-.708.315-.157,0-.252-.071-.244-.213 .008-.188.205-.496.44-.795l-.008-.007z" fill="#ccc"/>
  <path d="m516.116,499.528-.283.236c-.062.055-.095.078-.118.062s0-.047.087-.126 .369-.314.559-.44c.204-.142.307-.173.456-.173 .165,0 .181.023.087.126-.103.11-.252.291-.409.487-.126.165-.252.339-.291.425-.032.063-.032.118-.008.142 .031.031.102.023.181-.016 .173-.095.347-.221.591-.409 .377-.291.598-.487.85-.685 .062-.047.109-.086.228-.086 .134,0 .213.016.118.125-.142.174-.26.3-.417.504-.134.165-.236.307-.291.401-.048.078-.056.149-.023.173 .039.032.102.016.181-.023s.229-.134.354-.236c.158-.126.292-.243.378-.322 .047-.047.095-.078.11-.055 .023.016-.039.078-.063.102-.094.095-.291.26-.479.409-.142.11-.417.315-.677.315-.157,0-.243-.071-.243-.189 0-.11.055-.22.125-.322 .087-.126.236-.275.37-.409l-.008-.008c-.157.126-.425.338-.63.495-.322.244-.605.434-.842.434-.165,0-.268-.079-.26-.221 .009-.11.079-.229.149-.322 .158-.213.315-.401.559-.63-.058.023-.223.142-.341.236z" fill="#ccc"/>
  <path d="m518.508,500.465c-.188,0-.314-.087-.299-.291 .008-.166.149-.323.307-.323 .118,0 .188.095.149.197-.031.086-.134.109-.149.196-.008.063.031.095.079.095 .188,0 .386-.268.566-.527 .117-.165.22-.322.251-.448 .023-.103-.008-.157-.094-.173-.189-.032-.425.141-.59.267-.134.103-.26.213-.362.308-.062.055-.11.102-.134.078s.023-.07.095-.134c.126-.118.314-.275.44-.369 .149-.118.394-.268.629-.268 .165,0 .401.109.33.425h.009c.165-.189.408-.425.621-.425 .165,0 .252.125.221.275-.024.117-.134.212-.253.212-.062,0-.125-.031-.117-.118 .008-.062.063-.086.078-.149 .009-.031-.015-.062-.062-.062-.079,0-.181.078-.299.188-.078.071-.173.173-.299.347-.087.109-.174.259-.197.354-.031.11-.016.196.079.221 .149.031.417-.103.637-.268 .174-.126.331-.275.425-.362 .04-.039.063-.039.079-.023s0,.039-.047.087c-.103.094-.252.235-.417.361-.181.134-.457.331-.739.331-.244,0-.409-.15-.347-.434-.126.188-.354.432-.59.432z" fill="#ccc"/>
  <path d="m521.772,500.079c.149-.103.33-.244.479-.378 .048-.039.071-.047.087-.031s-.016.062-.063.103c-.102.094-.354.299-.495.393-.331.221-.622.323-.889.323-.292,0-.426-.11-.417-.314 .008-.158.078-.3.235-.488l-.008-.008-.157.142c-.039.031-.062.039-.079.023-.015-.023.017-.055.048-.087 .103-.094.173-.148.291-.235 .087-.063.236-.157.386-.236 .228-.118.464-.22.676-.22h.009c.173,0 .235.109.228.212-.016.205-.268.362-.503.479-.229.11-.496.205-.677.252-.031.063-.047.134-.047.182 0,.118.062.181.181.181 .101-.002.369-.058.715-.293zm-.267-.393c.197-.134.314-.299.322-.409 .008-.07-.023-.11-.095-.11s-.188.079-.346.229c-.126.118-.322.37-.417.527 .158-.041.371-.127.536-.237z" fill="#ccc"/>
  <path d="m502.562,502.67-.342.202c-.064-.111-.125-.184-.183-.217-.06-.039-.138-.058-.233-.058-.117,0-.214.033-.291.099s-.116.147-.116.246c0,.137.101.246.304.329l.278.114c.227.091.392.203.497.335 .105.132.157.294.157.485 0,.257-.086.469-.258.637s-.387.253-.643.253c-.242,0-.442-.072-.6-.218-.155-.145-.252-.347-.291-.606l.427-.095c.019.164.053.277.101.34 .087.121.213.181.38.181 .131,0 .24-.043.327-.131s.13-.2.13-.334c0-.055-.007-.104-.022-.149s-.039-.087-.07-.124-.073-.074-.124-.107l-.181-.095-.27-.111c-.382-.161-.573-.397-.573-.708 0-.209.08-.384.241-.525s.36-.213.599-.213c.323-.001.575.156.756.47z" fill="#ccc"/>
  <path d="m503.56 502.25v2.791h-0.423v-2.791h0.423z" fill="#ccc"/>
  <path d="m504.23 505.04v-2.982l2.035 2.131v-1.939h0.423v2.961l-2.035-2.124v1.954h-0.423v-1e-3z" fill="#ccc"/>
  <path d="m509.449,502.404v.498c-.244-.203-.496-.305-.756-.305-.287,0-.528.103-.725.309-.198.204-.296.454-.296.75 0,.293.099.539.296.74s.44.301.727.301c.148,0 .274-.023.378-.072 .058-.023.118-.057.18-.098s.127-.09.196-.147v.51c-.241.137-.494.206-.759.206-.399,0-.739-.14-1.021-.418s-.423-.619-.423-1.016c0-.355.118-.673.354-.951 .289-.341.664-.512 1.123-.512 .25,0 .492.069.726.205z" fill="#ccc"/>
  <path d="m511.518,502.651h-1.119v.669h1.086v.397h-1.086v.93h1.119v.397h-1.542v-2.791h1.542v.398z" fill="#ccc"/>
  <path d="m513.881,502.651h-.483l.231-.397h.674v2.791h-.423v-2.394h.001z" fill="#ccc"/>
  <path d="m515.529,503.594c-.205-.145-.307-.342-.307-.591 0-.227.078-.416.233-.568s.351-.228.584-.228 .424.075.578.228 .231.341.231.569c0,.24-.102.437-.306.589 .112.06.2.147.265.264s.099.246.099.391c0,.247-.08.45-.242.607s-.369.237-.622.237c-.258,0-.472-.08-.639-.239s-.253-.358-.253-.6c0-.315.126-.533.379-.659zm.036.642c0,.13.045.241.134.334s.2.139.329.139 .236-.046.327-.137 .135-.202.135-.33-.045-.239-.135-.33-.199-.137-.327-.137-.235.046-.327.137-.136.199-.136.324zm.054-1.236c0,.119.04.219.121.299s.18.123.295.123 .212-.041.293-.123 .123-.179.123-.293-.041-.212-.123-.293-.179-.123-.293-.123-.212.041-.293.123-.123.177-.123.287z" fill="#ccc"/>
  <path d="m518.951,504.264h.295v.384h-.297v.397h-.421v-.397h-1.37l1.793-2.604v2.22zm-.423,0v-.935l-.644.935h.644z" fill="#ccc"/>
  <path d="m520.054,503.594c-.205-.145-.308-.342-.308-.591 0-.227.078-.416.233-.568s.352-.228.584-.228 .424.075.578.228 .231.341.231.569c0,.24-.102.437-.306.589 .112.06.2.147.265.264s.099.246.099.391c0,.247-.081.45-.242.607s-.369.237-.621.237c-.259,0-.473-.08-.64-.239s-.254-.358-.254-.6c.001-.315.128-.533.381-.659zm.036.642c0,.13.045.241.134.334s.2.139.329.139 .236-.046.327-.137 .136-.202.136-.33-.046-.239-.136-.33-.199-.137-.327-.137-.235.046-.327.137-.136.199-.136.324zm.054-1.236c0,.119.041.219.121.299s.18.123.295.123 .212-.041.294-.123 .122-.179.122-.293-.041-.212-.122-.293-.18-.123-.294-.123-.212.041-.293.123-.123.177-.123.287z" fill="#ccc"/>
  <path d="m568.753,519.883-.031-.195-.033-.206-16.033,2.539-3.534-.449-4.259-.537-2.304,2.149-45.909,6.715 .371,2.34 45.736-7.8 2.856,1.332 3.884-1.83 3.231-1.52 16.025-2.538z" fill="#fff"/>
  <path d="m542.708,523.804 2.435-2.273 3.31.42 3.308.42-3.017,1.419-3.018,1.419-3.018-1.405z" fill="#949494"/>
  <path d="m511.66 528.79a0.517 0.517 0 1 0 -1.034 0 0.517 0.517 0 1 0 1.034 0" fill="url(#q)" stroke="#acadaf" stroke-width=".08"/>
 </g>
 <g transform="matrix(1.4662 0 0 1.4662 -616.26 0)">
  <path d="m540.06 469.66s11.366 16.446 20.558 27.087 11.607 27.088 11.607 27.088-1.45-20.558-8.947-33.617-23.218-20.558-23.218-20.558z" fill="url(#p)" opacity=".5"/>
  <path d="m541.01 469.08s11.367 16.446 20.558 27.088 11.608 27.087 11.608 27.087-1.45-20.558-8.947-33.617-23.219-20.558-23.219-20.558z" fill="url(#o)" opacity=".5"/>
  <path d="m539.32 590.49s17.171-8.948 22.976-19.348 8.465-21.283 8.465-21.283-13.302 20.557-19.106 26.845-12.335 13.786-12.335 13.786z" fill="url(#n)" opacity=".5"/>
  <path d="m538.75 590.3s17.172-8.947 22.976-19.348c5.806-10.399 8.465-21.282 8.465-21.282s-13.301 20.557-19.106 26.844-12.335 13.786-12.335 13.786z" fill="url(#m)" opacity=".5"/>
  <g opacity=".6">
   <path d="m487.24 590.36c0.458-0.62-32.867-39.066-24.51-74.015s34.143-50.143 34.945-52.451-45.755 15.924-46.022 63.926 35.129 63.162 35.587 62.54z" fill="url(#l)" opacity=".4"/>
   <path d="m488.88 591.75c0.458-0.621-32.867-39.067-24.509-74.016s34.142-50.143 34.945-52.45-45.755 15.924-46.023 63.925 35.129 63.162 35.587 62.541z" fill="url(#k)" opacity=".4"/>
  </g>
 </g>
 <g transform="matrix(1.4662 0 0 1.4662 -616.26 0)">
  <path d="m511.144,481.445 .746,2.299h2.417l-1.955,1.421 .746,2.299-1.954-1.421-1.956,1.421 .747-2.299-1.956-1.421h2.417l.748-2.299z" fill="url(#j)" fill-rule="evenodd"/>
  <path d="m527.09 561.59a16.042 16.042 0 1 0 -32.084 0 16.042 16.042 0 1 0 32.084 0" fill="url(#i)"/>
  <path d="m526.26 561.59a15.209 15.209 0 1 0 -30.418 0 15.209 15.209 0 1 0 30.418 0"/>
  <path d="m523.011,555.73-.431-.747-.467.11 .034.048 .027.044c.136.235.167.474.096.716s-.229.437-.475.578c-.255.147-.515.183-.779.106s-.471-.245-.621-.505c-.185-.32-.18-.659.014-1.018l.393.141c-.086.151-.133.28-.142.389s.021.217.085.328c.085.146.207.239.367.279s.319.014.47-.073c.156-.09.254-.212.296-.367s.024-.308-.061-.455c-.095-.164-.248-.264-.459-.301l-.069-.121 1.488-.352 .578,1-.344.2z" fill="#fff"/>
  <path transform="matrix(.208 -.9781 .9781 .208 -129.02 936.44)" d="m513.14 547.78h1.23v0.231h-1.23z" fill="#fff"/>
  <path transform="matrix(.4064 -.9137 .9137 .4064 -194.82 797.69)" d="m515.92 548.68h1.23v0.231h-1.23z" fill="#fff"/>
  <path transform="matrix(.5871 -.8095 .8095 .5871 -231.11 647.41)" d="m518.46 550.14h1.229v0.23h-1.229z" fill="#fff"/>
  <path transform="matrix(.7431 -.6692 .6692 .7431 -235.62 490.67)" d="m520.63 552.09h1.229v0.231h-1.229z" fill="#fff"/>
  <path d="m522.997,567.5 .241-.418 .229.399-.337.584-2.417-1.396 .211-.366 2.073,1.197z" fill="#fff"/>
  <path d="m521.539,568.063c.385.223.641.49.767.803 .114.281.105.537-.026.767s-.35.364-.65.406c-.334.047-.698-.043-1.094-.272s-.655-.498-.781-.811c-.114-.281-.106-.536.025-.765s.35-.364.651-.408c.334-.047.703.047 1.108.28zm-.21.359c-.269-.154-.519-.236-.749-.246s-.384.061-.468.205-.063.312.057.507c.119.193.311.367.574.52 .265.152.51.231.739.238s.383-.062.465-.206 .064-.31-.055-.504-.305-.366-.563-.514z" fill="#fff"/>
  <path transform="matrix(.951 -.3091 .3091 .951 -146.56 189.28)" d="m523.55 557.13h1.229v0.232h-1.229z" fill="#fff"/>
  <path transform="matrix(.9945 -.1049 .1049 .9945 -55.835 58.11)" d="m524.16 559.99h1.229v0.232h-1.229z" fill="#fff"/>
  <path transform="matrix(.9946 .104 -.104 .9946 61.391 -51.515)" d="m524.16 562.92h1.23v0.232h-1.23z" fill="#fff"/>
  <path transform="matrix(.9511 .3088 -.3088 .9511 200.39 -134.22)" d="m523.55 565.78h1.23v0.231h-1.23z" fill="#fff"/>
  <path d="m511.788,575.066h.482l-.231.397h-.674v-2.791h.423v2.394z" fill="#fff"/>
  <path d="m508.851,575.066h.862l.137-.459-.059.006-.052.001c-.271,0-.494-.092-.667-.274-.176-.183-.263-.416-.263-.7 0-.295.099-.537.297-.728s.447-.286.747-.286c.37,0 .662.174.875.521l-.318.27c-.088-.149-.177-.255-.266-.316s-.198-.09-.327-.09c-.168,0-.31.059-.425.177s-.171.271-.171.444c0,.179.056.325.17.438 .113.118.255.177.425.177 .189,0 .353-.083.49-.248h.139l-.439,1.466h-1.155v-.399z" fill="#fff"/>
  <path transform="matrix(.7427 .6696 -.6696 .7427 516.44 -202.14)" d="m520.65 570.83h1.229v0.232h-1.229z" fill="#fff"/>
  <path transform="matrix(.5876 .8091 -.8091 .5876 677.63 -183.76)" d="m518.47 572.79h1.23v0.232h-1.23z" fill="#fff"/>
  <path transform="matrix(.4074 .9133 -.9133 .4074 830.66 -131.37)" d="m515.94 574.25h1.23v0.231h-1.23z" fill="#fff"/>
  <path transform="matrix(.2084 .978 -.978 .2084 969.35 -47.099)" d="m513.16 575.16h1.23v0.231h-1.23z" fill="#fff"/>
  <path d="m501.499,568.313-.521-.901 .345-.199 .938,1.625-1.5-.253-.382-.056c-.106-.014-.193-.02-.26-.02-.132-.004-.237.018-.315.062-.113.065-.184.159-.215.282s-.012.243.056.36c.141.244.366.302.674.17l.21.363c-.543.236-.946.126-1.21-.33-.127-.221-.164-.446-.11-.677s.182-.406.389-.525c.131-.076.28-.115.447-.118 .086-.002.194.005.324.021s.287.042.47.075l.66.121z" fill="#fff"/>
  <path d="m499.863,567.511c-.385.222-.745.31-1.079.262-.301-.041-.518-.177-.65-.405s-.142-.484-.026-.767c.125-.312.386-.583.782-.812s.759-.318 1.092-.271c.301.041.518.177.649.404s.141.484.027.768c-.124.314-.389.586-.795.821zm-.205-.362c.268-.155.464-.33.587-.526 .121-.193.14-.362.056-.506s-.238-.212-.467-.205-.474.085-.738.237-.456.326-.576.521c-.119.194-.137.363-.055.506s.237.211.464.204 .471-.082.729-.231z" fill="#fff"/>
  <path transform="matrix(-.2084 .978 -.978 -.2084 1176.5 198.36)" d="m507.33 575.16h1.23v0.232h-1.23z" fill="#fff"/>
  <path transform="matrix(-.4064 .9137 -.9137 -.4064 1235.3 346.26)" d="m504.55 574.26h1.23v0.231h-1.23z" fill="#fff"/>
  <path transform="matrix(-.5877 .8091 -.8091 -.5877 1261.6 502.97)" d="m502.02 572.8h1.229v0.231h-1.229z" fill="#fff"/>
  <path transform="matrix(-.7427 .6696 -.6696 -.7427 1254.5 659.89)" d="m499.84 570.84h1.229v0.231h-1.229z" fill="#fff"/>
  <path d="m500.341,556.826 .521-.901 .344.198-.938,1.625-.531-1.425-.143-.359c-.042-.099-.08-.177-.113-.235-.063-.116-.134-.196-.213-.241-.112-.065-.229-.08-.352-.045s-.217.111-.284.229c-.141.244-.078.468.19.669l-.21.363c-.476-.353-.582-.757-.318-1.213 .127-.22.304-.364.53-.434s.443-.046.65.073c.132.076.24.186.326.328 .045.074.093.171.144.292s.107.269.17.443l.227.633z" fill="#fff"/>
  <path d="m500.265,552.967-.431.746 .329.349c.008-.019.016-.037.025-.053l.024-.046c.135-.234.327-.382.572-.44 .246-.062.491-.021.738.122 .255.146.415.354.481.621s.024.53-.126.79c-.185.32-.481.486-.888.497l-.074-.41c.173-.001.309-.025.407-.071s.177-.127.242-.238c.084-.146.104-.299.059-.457-.049-.16-.148-.284-.298-.371-.155-.089-.31-.113-.466-.072s-.279.133-.364.28c-.095.164-.104.347-.031.548l-.069.121-1.05-1.114 .578-1 .342.198z" fill="#fff"/>
  <path transform="matrix(-.9513 .3081 -.3081 -.9513 1145.2 951.01)" d="m496.93 565.8h1.23v0.232h-1.23z" fill="#fff"/>
  <path transform="matrix(-.9945 .1048 -.1048 -.9945 1050.1 1070.9)" d="m496.32 562.94h1.23v0.232h-1.23z" fill="#fff"/>
  <path transform="matrix(-.9945 -.1049 .1049 -.9945 932.39 1169.3)" d="m496.31 560.02h1.229v0.232h-1.229z" fill="#fff"/>
  <path transform="matrix(-.9513 -.3081 .3081 -.9513 799.16 1240.7)" d="m496.92 557.15h1.23v0.231h-1.23z" fill="#fff"/>
  <path d="m509.723,549.199v-.359c.178,0 .298-.021.36-.061 .109-.07.165-.182.165-.337 0-.119-.04-.217-.12-.291-.078-.076-.18-.114-.305-.114-.117,0-.208.028-.271.085s-.107.155-.137.293h-.419c.043-.263.132-.455.268-.578s.324-.184.566-.184 .444.073.599.218c.155.144.232.329.232.556 0,.256-.102.455-.304.597 .231.137.347.358.347.665 0,.251-.085.456-.254.615s-.386.238-.65.238c-.336,0-.585-.123-.748-.37-.067-.104-.11-.247-.128-.431h.407c.021.136.074.239.158.311s.193.107.328.107 .249-.045.338-.136 .134-.211.134-.354c0-.188-.067-.321-.201-.401-.08-.045-.201-.069-.365-.069z" fill="#fff"/>
  <path d="m511.206,549.083c0-.445.104-.801.312-1.065 .187-.24.412-.36.677-.36s.49.12.677.36c.208.265.312.626.312,1.083s-.104.816-.312,1.082c-.187.24-.411.359-.675.359s-.49-.119-.679-.359c-.208-.266-.312-.632-.312-1.1zm.415.002c0,.311.054.567.161.772 .107.201.244.302.411.302s.302-.101.411-.302 .163-.453.163-.758-.054-.558-.163-.759-.245-.301-.411-.301c-.164,0-.301.101-.409.301s-.163.448-.163.745z" fill="#fff"/>
  <path transform="matrix(-.7423 -.6701 .6701 -.7423 501.9 1297.5)" d="m499.83 552.11h1.23v0.231h-1.23z" fill="#fff"/>
  <path transform="matrix(-.588 -.8089 .8089 -.588 353.05 1280.4)" d="m502 550.15h1.229v0.231h-1.229z" fill="#fff"/>
  <path transform="matrix(-.4067 -.9135 .9135 -.4067 209.25 1233.5)" d="m504.53 548.68h1.229v0.232h-1.229z" fill="#fff"/>
  <path transform="matrix(-.2084 -.978 .978 -.2084 77.911 1158.8)" d="m507.32 547.78h1.23v0.231h-1.23z" fill="#fff"/>
  <path d="m511.78 561.56a0.761 0.761 0 1 0 -1.522 0 0.761 0.761 0 1 0 1.522 0" fill="#fff"/>
  <path d="m511.355,561.55798a.338,.338 0 1,0 -.676,0 .338,.338 0 1,0 .676,0" fill="url(#h)" stroke="#acadaf" stroke-width=".08"/>
  <path d="m510.398,561.717-5.408,7.209-.001.001 .001.001-.2.765-.201.765 .666-.427 .666-.428 .001.001l5.185-7.372-.709-.515z" fill="#fff"/>
  <path d="m510.523,561.924-5.064,6.858 .453.329 4.958-6.936-.347-.251z" fill="#949494"/>
 </g>
 <g transform="matrix(1.4662 0 0 1.4662 -616.26 0)">
  <path d="m464 66.405h94.095v3.085h-94.095z"/>
  <path d="m556.17 0h-90.242c-5.366 0-9.715 11.17-9.715 17.816v94.633c0 6.647 4.35 18.453 9.715 18.453h90.242c5.366 0 9.716-11.806 9.716-18.453v-94.633c0-6.646-4.35-17.816-9.716-17.816zm1.654 99.172c0 4.395-3.787 7.956-8.46 7.956h-78.585c-4.672 0-8.46-3.562-8.46-7.956v-70.624c0-4.394 3.788-7.955 8.46-7.955h78.585c4.673 0 8.46 3.562 8.46 7.955v70.624z" fill="#b8b8b8"/>
  <path d="m553.79 0h-85.483c-5.083 0-9.203 11.17-9.203 17.816v94.633c0 6.647 4.12 18.453 9.203 18.453h85.483c5.084 0 9.204-11.806 9.204-18.453v-94.633c0-6.646-4.12-17.816-9.204-17.816zm2.493 99.172c0 4.395-3.587 7.956-8.014 7.956h-74.441c-4.426 0-8.014-3.562-8.014-7.956v-70.624c0-4.394 3.588-7.955 8.014-7.955h74.441c4.427 0 8.014 3.562 8.014 7.955v70.624z" fill="url(#an)"/>
  <path d="m551.08 733.18h-0.031c1.675-64.191 10.115-95.951 10.115-95.951s-10.125-5.146-50.102-5.146v101.1h-0.025v-101.12c-39.977 0-50.101 5.147-50.101 5.147s8.448 31.788 10.117 96.037v179.46c-0.302 18.414-1.24 90.464 1.868 125.42 3.58 40.279 13.426 78.769 17.006 85.034s21.123 10.685 21.123 10.685v-1e-3 1e-3s17.543-4.42 21.123-10.685 13.427-44.755 17.007-85.034c3.002-33.766 2.229-102.13 1.9-123.35v-181.6z"/>
  <path d="m515.15 812.68c0 2.266-1.836 4.102-4.102 4.102s-4.102-1.836-4.102-4.102v-4.464c0-2.266 1.836-4.102 4.102-4.102s4.102 1.836 4.102 4.102v4.464z" fill="url(#a)"/>
  <path d="m514.662,812.329c.035,1.975-1.537,3.605-3.513,3.641s-3.605-1.537-3.64-3.513l-.07-3.893c-.035-1.976 1.537-3.605 3.513-3.641s3.605,1.537 3.641,3.513l.069,3.893z" fill="url(#am)"/>
  <path d="m515.15 845.84c0 2.265-1.836 4.102-4.102 4.102s-4.102-1.837-4.102-4.102v-4.464c0-2.266 1.836-4.102 4.102-4.102s4.102 1.836 4.102 4.102v4.464z" fill="url(#a)"/>
  <path d="m514.662,845.492c.035,1.976-1.537,3.606-3.513,3.642s-3.605-1.537-3.64-3.513l-.07-3.893c-.035-1.976 1.537-3.605 3.513-3.641s3.605,1.537 3.641,3.513l.069,3.892z" fill="url(#al)"/>
  <path d="m515.15 879.01c0 2.265-1.836 4.102-4.102 4.102s-4.102-1.837-4.102-4.102v-4.464c0-2.266 1.836-4.103 4.102-4.103s4.102 1.837 4.102 4.103v4.464z" fill="url(#a)"/>
  <path d="m514.662,878.656c.035,1.976-1.537,3.606-3.513,3.642s-3.605-1.537-3.64-3.513l-.07-3.893c-.035-1.976 1.537-3.605 3.513-3.641s3.605,1.537 3.641,3.513l.069,3.892z" fill="url(#ak)"/>
  <path d="m515.15 912.17c0 2.266-1.836 4.103-4.102 4.103s-4.102-1.837-4.102-4.103v-4.463c0-2.266 1.836-4.103 4.102-4.103s4.102 1.837 4.102 4.103v4.463z" fill="url(#a)"/>
  <path d="m514.662,911.82c.035,1.976-1.537,3.606-3.513,3.642s-3.605-1.537-3.64-3.513l-.07-3.893c-.035-1.976 1.537-3.605 3.513-3.641s3.605,1.536 3.641,3.512l.069,3.893z" fill="url(#aj)"/>
  <path d="m515.15 945.33c0 2.266-1.836 4.103-4.102 4.103s-4.102-1.837-4.102-4.103v-4.463c0-2.266 1.836-4.103 4.102-4.103s4.102 1.837 4.102 4.103v4.463z" fill="url(#a)"/>
  <path d="m514.662,944.984c.035,1.976-1.537,3.605-3.513,3.642s-3.605-1.537-3.64-3.513l-.07-3.893c-.035-1.976 1.537-3.605 3.513-3.642s3.605,1.537 3.641,3.513l.069,3.893z" fill="url(#ai)"/>
  <path d="m515.15 978.5c0 2.266-1.836 4.103-4.102 4.103s-4.102-1.837-4.102-4.103v-4.463c0-2.266 1.836-4.103 4.102-4.103s4.102 1.837 4.102 4.103v4.463z" fill="url(#a)"/>
  <path d="m514.662,978.148c.035,1.976-1.537,3.605-3.513,3.641s-3.605-1.536-3.64-3.513l-.07-3.892c-.035-1.977 1.537-3.606 3.513-3.642s3.605,1.537 3.641,3.513l.069,3.893z" fill="url(#ah)"/>
  <path d="m515.15 1011.7c0 2.266-1.836 4.102-4.102 4.102s-4.102-1.836-4.102-4.102v-4.464c0-2.265 1.836-4.102 4.102-4.102s4.102 1.837 4.102 4.102v4.464z" fill="url(#a)"/>
  <path d="m514.662,1011.312c.035,1.976-1.537,3.605-3.513,3.641s-3.605-1.537-3.64-3.513l-.07-3.892c-.035-1.977 1.537-3.606 3.513-3.642s3.605,1.537 3.641,3.513l.069,3.893z" fill="url(#ag)"/>
  <path d="m515.15 1044.8c0 2.266-1.836 4.102-4.102 4.102s-4.102-1.836-4.102-4.102v-4.464c0-2.266 1.836-4.102 4.102-4.102s4.102 1.836 4.102 4.102v4.464z" fill="url(#a)"/>
  <path d="m514.662,1044.477c.035,1.975-1.537,3.605-3.513,3.641s-3.605-1.537-3.64-3.513l-.07-3.893c-.035-1.976 1.537-3.605 3.513-3.641s3.605,1.537 3.641,3.513l.069,3.893z" fill="url(#af)"/>
  <path d="m558.99 638.77s-13.883 11.8-13.883 31.234v365.1c0 21.517-12.493 74.269-15.27 81.903 0 0-4.122 10.285-18.79 10.285s-18.79-10.285-18.79-10.285c-2.776-7.635-15.27-60.387-15.27-81.903v-365.1c0-19.435-13.882-31.234-13.882-31.234" fill="none" stroke="#b8b8b8" stroke-dasharray="6" stroke-width=".5"/>
  <path d="m516.52 20.557v-4.429c0-4.767-2.45-8.63-5.472-8.63s-5.472 3.863-5.472 8.63v4.429h10.944z" fill="url(#ae)"/>
  <path d="m515.97 20.557v-4.166c0-4.484-2.202-8.12-4.917-8.12s-4.917 3.636-4.917 8.12v4.166h9.834z" fill="url(#ad)"/>
  <path d="m511.062,425.497c39.978,0 50.103-5.146 50.103-5.146s-8.44-31.76-10.115-95.951h.031v-181.606c.226-14.607.662-51.543-.066-84.162h-79.927c-.766,34.296-.244,73.365-.033,86.235v179.461c-1.669,64.249-10.118,96.037-10.118,96.037s10.125,5.147 50.102,5.147m.01-349.234c-3.625,0-6.562-2.938-6.562-6.562s2.938-6.562 6.562-6.562 6.562,2.938 6.562,6.562-2.938,6.562-6.562,6.562z"/>
  <path d="m463.11 418.81s13.882-11.8 13.882-31.234v-328.94" fill="none" stroke="#b8b8b8" stroke-dasharray="6" stroke-width=".5"/>
  <path d="m545.11 58.632v328.94c0 19.435 13.883 31.234 13.883 31.234" fill="none" stroke="#b8b8b8" stroke-dasharray="6" stroke-width=".5"/>
  <path d="m507.81 12.88h6.479v57.559h-6.479z" fill="url(#ac)"/>
 </g>
</svg>
